<?xml version="1.0" encoding="utf-8"?>
<!-- Generator: Adobe Illustrator 16.0.0, SVG Export Plug-In . SVG Version: 6.00 Build 0)  -->
<!DOCTYPE svg PUBLIC "-//W3C//DTD SVG 1.1//EN" "http://www.w3.org/Graphics/SVG/1.1/DTD/svg11.dtd">
<svg version="1.1" id="Capa_1" xmlns="http://www.w3.org/2000/svg" xmlns:xlink="http://www.w3.org/1999/xlink" x="0px" y="0px"
	 width="300px" height="300px" viewBox="0 0 300 300" enable-background="new 0 0 300 300" xml:space="preserve">
<g>
	<path fill="#FEDB41" d="M150.586,0C68.145,0,0,66.973,0,149.414S68.145,300,150.586,300C233.026,300,300,231.855,300,149.414
		S233.026,0,150.586,0z"/>
	<path fill="#FFCC33" d="M300,149.414C300,231.855,233.026,300,150.586,300V0C233.026,0,300,66.973,300,149.414z"/>
	<path fill="#FEA832" d="M150.586,35.156c-62.931,0-115.43,51.328-115.43,114.258c0,62.93,52.499,115.43,115.43,115.43
		c62.931,0,114.258-52.5,114.258-115.43C264.844,86.484,213.517,35.156,150.586,35.156z"/>
	<path fill="#FE9923" d="M264.844,149.414c0,62.93-51.327,115.43-114.258,115.43V35.156
		C213.517,35.156,264.844,86.484,264.844,149.414z"/>
</g>
<g>
	<rect x="135.161" y="108.948" fill="none" width="15.425" height="34.333"/>
	<polygon fill="#FEDB41" points="135.161,143.282 135.161,108.948 150.586,108.948 150.586,85.427 105.379,85.427 105.379,214.89 
		136.204,214.89 136.204,166.804 150.586,166.804 150.586,143.282 	"/>
	<path fill="#FFCC33" d="M177.888,165.096c4.33-1.138,8.805-3.445,13.421-6.923c4.614-3.477,8.188-8.252,10.717-14.322
		c2.528-6.07,3.794-12.297,3.794-18.685c0-9.105-2.371-16.788-7.113-23.047s-10.134-10.606-16.171-13.041
		c-6.039-2.434-14.748-3.651-26.13-3.651h-5.819v23.521h4.207c6.892,0,12.029,1.55,15.412,4.647
		c3.382,3.099,5.074,7.271,5.074,12.519c0,4.491-1.518,8.474-4.553,11.951c-3.034,3.478-8.314,5.216-15.839,5.216h-4.302v23.522
		h6.958C166.774,166.804,173.556,166.234,177.888,165.096z"/>
</g>
</svg>
