<?xml version="1.0" encoding="utf-8"?>
<!-- Generator: Adobe Illustrator 18.1.1, SVG Export Plug-In . SVG Version: 6.00 Build 0)  -->
<svg version="1.1" id="图层_1" xmlns="http://www.w3.org/2000/svg" xmlns:xlink="http://www.w3.org/1999/xlink" x="0px" y="0px"
	 viewBox="0 0 180 80" enable-background="new 0 0 180 80" xml:space="preserve">
<image display="none" overflow="visible" width="880" height="455" xlink:href="755DB48B.png"  transform="matrix(0.1758 0 0 0.1758 35.304 0)">
</image>
<g>
	<g>
		<path d="M27.9,49.6c-0.9,0-1.8-0.1-2.7-0.4c-1.3-0.3-2.2-1.3-2.5-2.7c-0.2-1.2-0.4-2.4-0.4-3.6c0-2.6,0.1-5.3,0.1-7.9l0-1.2
			l-0.5,0.7c-2,2.7-3.8,5.2-5.7,7.8c-1.1,1.4-2.3,2.8-3.5,4.1c-1.8,2-4,3-6.5,3c-0.1,0-0.3,0-0.4,0c-3.2-0.1-4.1-2.2-4.2-3.9
			l-0.1-0.9c-0.2-2.4-0.3-5,0-7.4c0.6-5.1,1.5-10.2,2.3-15.2c0.3-1.7,0.6-3.5,0.8-5.2c0.1-0.6,0-0.9-0.3-1.1C3.6,15,3.3,14,3.5,13
			c0.2-1,0.9-1.8,1.8-2.2c0.9-0.4,1.8-0.6,2.7-0.6c1.1,0,2.2,0,3.3,0c1.8,0,3.5,0,5.3,0l0.4,0c0.6,0,1.3,0.1,2,0.2
			c1,0.2,1.8,1,2.1,1.9c0.3,0.9,0,1.9-0.8,2.6c-0.4,0.4-1.1,1-2,1.3c-1.3,0.5-1.8,1.4-2.1,3.1l-1.8,15c3.1-4,6.4-8.5,8.8-13.6
			c0.5-1,0.8-2,1.2-3.1c0.1-0.3,0.2-0.7,0.4-1c0.1-0.4,0.1-0.5-0.2-0.8c-0.8-0.8-1.2-1.8-1.1-2.8c0.2-1,0.9-1.8,1.9-2.3
			c0.8-0.4,1.7-0.6,2.7-0.6c1.5,0,3,0,4.5,0l4.4,0c0.4,0,0.8,0.1,1.3,0.2c0.5,0.1,2,0.4,2.3,2c0.3,1.6-0.4,2.9-1.6,3.3
			c-1.7,0.6-2.6,1.7-3,4.1c-1.1,5.6-1.6,10.6-1.6,15.6c4.6-6,8.3-11.8,11.3-17.5c0.1-0.1,0.1-0.3,0.2-0.4c0.1-0.2,0.1-0.3,0.2-0.5
			c0.3-0.5,0.2-0.6-0.2-0.8c-1.1-0.6-1.7-1.8-1.5-3c0.2-1.3,1-2.2,2.2-2.6l0.2-0.1c0.3-0.1,0.8-0.3,1.2-0.3l0.8,0c0.9,0,1.7,0,2.6,0
			c1.7,0,3.1,0,4.4,0.1c0.8,0,2.3,0.6,2.5,1.7c0.1,0.9,0,2.5-1,3.1c-2.5,1.6-4,4-5.6,6.5c-0.6,1-1.2,2-1.9,2.9
			c-2.3,3.3-4.6,6.6-6.8,9.8c-1.9,2.8-3.8,5.6-5.7,8.3c-0.9,1.3-2,2.5-3.1,3.6l-0.7,0.8C31.9,48.8,30.1,49.6,27.9,49.6z"/>
		<path fill="#FFFFFF" d="M32.6,11.2c1.5,0,2.9,0,4.4,0c0.4,0,0.8,0.1,1.1,0.1c0.7,0.1,1.4,0.4,1.5,1.2c0.1,0.9,0,1.9-1,2.2
			c-2.4,0.8-3.3,2.6-3.7,4.9c-1.2,6-1.8,12-1.5,18.4c0.6-0.7,1-1.1,1.3-1.5c4.4-5.7,8.5-11.7,11.8-18.1c0.2-0.3,0.3-0.6,0.4-0.9
			c0.4-0.9,0.3-1.6-0.7-2.1c-0.7-0.4-1.2-1.1-1-2c0.1-0.9,0.6-1.5,1.5-1.8c0.4-0.1,0.7-0.3,1.1-0.3c1.1,0,2.3,0,3.4,0
			c1.5,0,2.9,0,4.4,0.1c0.5,0,1.5,0.5,1.5,0.9c0.1,0.7-0.1,1.8-0.5,2.1c-3.8,2.3-5.4,6.3-7.7,9.7c-4.3,6-8.3,12.2-12.5,18.2
			c-1.1,1.5-2.4,2.9-3.7,4.3c-1.4,1.5-3,2.1-4.8,2.1c-0.8,0-1.7-0.1-2.5-0.3c-0.9-0.2-1.5-1-1.7-1.9c-0.2-1.1-0.4-2.3-0.4-3.4
			c0-3.7,0.1-7.3,0.2-11c0-0.3,0-0.7,0-1.1c-2.8,3.8-5.4,7.4-8.1,11c-1.1,1.4-2.3,2.8-3.5,4.1c-1.5,1.7-3.5,2.6-5.7,2.6
			c-0.1,0-0.3,0-0.4,0c-2-0.1-3.1-1-3.2-2.9c-0.2-2.7-0.4-5.5-0.1-8.2c0.9-6.8,2-13.6,3.1-20.4c0.1-0.8,0.1-1.4-0.5-2
			c-1-1.1-0.7-2.7,0.7-3.2c0.7-0.3,1.5-0.5,2.3-0.5c1.1,0,2.2,0,3.3,0c1.9,0,3.8,0,5.6,0c0.6,0,1.2,0.1,1.7,0.2
			c1.4,0.3,1.8,1.8,0.8,2.8c-0.5,0.4-1,0.9-1.6,1.1c-1.8,0.7-2.5,2.2-2.7,4c-0.6,4.7-1.1,9.5-1.7,14.2c-0.2,1.3-0.3,2.5-0.5,3.9
			c0.2-0.1,0.3-0.1,0.4-0.1c4.1-5,7.9-10.2,10.7-16c0.6-1.3,1.1-2.8,1.6-4.2c0.3-0.7,0.2-1.3-0.4-1.9c-1.2-1.2-1-2.8,0.6-3.5
			c0.7-0.3,1.5-0.5,2.3-0.5C29.6,11.2,31.1,11.2,32.6,11.2 M32.6,9.2c-1.8,0-3.2,0-4.5,0c-0.8,0-2,0.1-3.1,0.7
			c-1.4,0.6-2.3,1.7-2.5,3.1c-0.2,1.3,0.2,2.6,1.2,3.6c-0.1,0.3-0.2,0.6-0.3,0.9c-0.4,1-0.7,2-1.2,3c-1.8,3.8-4.1,7.3-6.4,10.5
			l0.6-4.7l0.8-6.6c0.2-1.6,0.7-2,1.4-2.3c1-0.4,1.8-1,2.3-1.5c1-1,1.4-2.3,1.1-3.6c-0.4-1.3-1.4-2.3-2.8-2.6
			c-0.7-0.2-1.5-0.3-2.2-0.3l-0.3,0c-1.8,0-3.6,0-5.3,0c-1.1,0-2.2,0-3.3,0c-1,0-2.1,0.3-3.1,0.7c-1.2,0.5-2.1,1.6-2.4,2.9
			c-0.3,1.3,0.1,2.6,1,3.6c0,0,0,0,0,0c0,0,0,0.1,0,0.3C3.3,18.5,3,20.2,2.7,22c-0.8,5-1.6,10.1-2.3,15.2c-0.3,2.6-0.2,5.1,0,7.6
			l0.1,0.9c0.2,2.9,2.1,4.7,5.1,4.8c0.2,0,0.3,0,0.5,0c2.8,0,5.3-1.1,7.2-3.2l0,0c1.2-1.3,2.4-2.7,3.6-4.2c1.5-2,2.9-3.9,4.4-6
			c0,1.9-0.1,3.9-0.1,5.9c0,1.3,0.2,2.5,0.5,3.8c0.3,1.8,1.5,3.1,3.2,3.5c1.1,0.3,2,0.4,3,0.4c2.5,0,4.6-0.9,6.2-2.7
			c0.2-0.3,0.5-0.5,0.7-0.8c1.1-1.2,2.2-2.4,3.2-3.7c1.9-2.8,3.9-5.6,5.7-8.3c2.2-3.2,4.5-6.6,6.8-9.8c0.7-1,1.3-2,1.9-3
			c1.5-2.5,2.9-4.8,5.3-6.2c1.4-0.9,1.6-2.9,1.5-4.1c-0.3-1.7-2.4-2.5-3.4-2.6c-1.3,0-2.7-0.1-4.5-0.1c-0.9,0-1.7,0-2.6,0l-0.8,0
			c-0.6,0-1.2,0.2-1.5,0.3l-0.2,0.1c-1.6,0.5-2.6,1.8-2.9,3.4c-0.2,1.6,0.4,3,1.7,3.9c0,0.1-0.1,0.2-0.1,0.2c0,0.1-0.1,0.2-0.2,0.3
			c-2.6,4.9-5.7,9.8-9.4,14.9c0.2-3.9,0.7-7.9,1.5-12.3c0.4-2,1-2.9,2.4-3.4c1.7-0.6,2.6-2.3,2.3-4.4c-0.2-1.1-0.8-2.4-3.1-2.9
			C38,9.3,37.5,9.2,37,9.2l-1.5,0C34.5,9.2,33.5,9.2,32.6,9.2L32.6,9.2z"/>
	</g>
	<g>
		<path d="M85.1,49.8c-2.7,0-4.3-0.6-6.5-2.3c-0.1,0-0.1,0.1-0.2,0.1c-0.6,0.4-1.3,0.8-2,1.1c-0.8,0.4-1.6,0.7-2.3,0.9
			c-0.3,0.1-0.7,0.1-1,0.1c-1,0-1.9-0.4-2.4-1.1c-0.6-0.8-0.7-1.8-0.3-3c0.6-1.7,1.3-3.4,2-5.1l0.6-1.5c2.9-7.2,5.8-14.5,8.7-21.7
			c0-0.1,0.1-0.3,0.1-0.4c0,0,0,0-0.1-0.1c-1-0.8-1.2-1.6-1.2-2.2c0-0.6,0.2-1.4,1.2-2.3c0.7-0.6,1.4-1,2.1-1.2
			c2.1-0.6,4.3-1.1,6.4-1.7l0.9-0.2c0.2-0.1,0.5-0.1,0.8-0.1c0.2,0,0.3,0,0.5,0c1.3,0.1,2.1,0.5,2.5,1.3c0.5,0.7,0.4,1.7,0,2.9
			c-1,2.4-4.2,10.3-4.2,10.3c0.7-0.3,1.5-0.6,2.2-0.9c1.1-0.4,2.3-0.6,3.4-0.6c2.8,0,5.3,1.2,7,3.3c1.7,2.2,2.2,4.9,1.6,8.3
			c-0.8,4.2-3.2,7.8-7.5,11.3c-3.7,3-7.5,4.5-11.7,4.6C85.5,49.8,85.3,49.8,85.1,49.8z M83.8,41.4c0,1.9,0.7,1.9,1,1.9l0,0
			c0.3,0,0.6-0.1,1-0.2c1-0.4,1.7-0.8,2.3-1.3c2.5-2.2,4.2-5.1,5.1-8.7c0.2-0.6,0.2-1.3,0.1-2c-0.1-0.8-0.4-1-1.2-1l-0.1,0
			c-1.2,0.1-2.3,0.6-3.4,1.7c-2,2.2-3.5,4.9-4.7,8.9c-0.1,0.2-0.1,0.5-0.1,0.7C83.8,41.3,83.8,41.3,83.8,41.4z"/>
		<path fill="#FFFFFF" d="M92,10.2c0.1,0,0.3,0,0.4,0c1.8,0.2,2.3,1,1.6,2.7c-1.6,3.9-3.2,7.8-4.8,11.7c-0.1,0.3-0.2,0.6-0.3,0.9
			c1.5-0.7,2.9-1.4,4.4-1.9c1.1-0.3,2.1-0.5,3.1-0.5c2.5,0,4.7,1,6.2,3c1.7,2.2,1.9,4.8,1.4,7.5c-0.9,4.6-3.7,7.9-7.2,10.7
			c-3.2,2.6-6.8,4.3-11.1,4.4c-0.2,0-0.4,0-0.6,0c-2.7,0-4.1-0.6-6.4-2.5c-0.9,0.5-1.8,1.1-2.7,1.6c-0.7,0.3-1.4,0.6-2.1,0.8
			c-0.3,0.1-0.5,0.1-0.7,0.1c-1.5,0-2.3-1.2-1.7-2.8c0.8-2.2,1.7-4.4,2.6-6.6c2.9-7.2,5.8-14.5,8.7-21.7c0.2-0.6,0.4-1.1-0.3-1.6
			c-1.1-0.9-1.1-2,0-2.9c0.5-0.4,1.1-0.8,1.7-1c2.4-0.7,4.9-1.3,7.3-1.9C91.6,10.2,91.8,10.2,92,10.2 M84.8,44.2
			c0.4,0,0.9-0.1,1.4-0.3c0.9-0.4,1.8-0.8,2.6-1.5c2.8-2.5,4.5-5.7,5.4-9.2c0.2-0.7,0.2-1.6,0.1-2.4c-0.2-1.3-0.9-1.9-2.2-1.9
			c-0.1,0-0.1,0-0.2,0c-1.7,0.1-3,0.9-4,2.1c-2.4,2.6-3.9,5.9-4.9,9.2c-0.1,0.4-0.2,0.9-0.2,1C82.8,43.3,83.5,44.2,84.8,44.2
			 M92,8.2c-0.4,0-0.7,0-1,0.1L90,8.6c-2.1,0.5-4.3,1.1-6.4,1.7c-0.8,0.2-1.6,0.7-2.4,1.4c-1.3,1.1-1.6,2.3-1.6,3.1
			c0,0.7,0.2,1.6,1.1,2.6c-2.9,7.2-5.7,14.3-8.6,21.5c-0.2,0.5-0.4,1-0.6,1.5c-0.7,1.7-1.4,3.4-2,5.1c-0.5,1.4-0.3,2.8,0.4,3.9
			c0.7,1,1.9,1.6,3.2,1.6c0.4,0,0.8,0,1.2-0.1c0.8-0.2,1.7-0.5,2.6-1c0.6-0.3,1.1-0.6,1.7-0.9c2.1,1.5,3.9,2.1,6.5,2.1
			c0.2,0,0.4,0,0.6,0c4.4-0.1,8.4-1.7,12.3-4.8c4.5-3.7,7-7.4,7.9-11.9c0.7-3.7,0.1-6.7-1.8-9.1c-1.9-2.4-4.6-3.7-7.8-3.7
			c-1.2,0-2.5,0.2-3.7,0.6c0,0-0.1,0-0.1,0l0.5-1.2c0.9-2.3,1.9-4.6,2.8-6.9c0.6-1.5,0.6-2.7,0-3.8c-0.6-1-1.7-1.6-3.3-1.7
			C92.3,8.2,92.2,8.2,92,8.2L92,8.2z M84.8,41.4C84.8,41.4,84.8,41.4,84.8,41.4c0-0.2,0-0.4,0.1-0.6c1.2-3.8,2.6-6.4,4.5-8.5
			c0.9-0.9,1.7-1.4,2.7-1.4l0.1,0c0.1,0,0.1,0,0.2,0c0,0,0,0.1,0,0.1c0.1,0.6,0,1.1-0.1,1.6c-0.9,3.5-2.5,6.2-4.8,8.2
			c-0.5,0.4-1.1,0.8-2,1.1c-0.2,0.1-0.4,0.1-0.5,0.2C84.9,42.1,84.8,41.8,84.8,41.4L84.8,41.4z"/>
	</g>
	<g>
		<path d="M134.9,49.5c-2.2,0-3.1-1.9-3.5-2.5c-1-1.9-1.4-4-1.5-6.8c0-0.5,0-1.1,0-1.6c-1,2.2-1.9,4.5-2.8,6.9
			c-0.9,2.2-2.3,3.3-4.4,3.3c-0.1,0-0.2,0-0.3,0c-0.3,0-0.6,0-1,0c-0.3,0-1.5,0-1.8,0c-0.4,0-0.7,0-1.1,0c-0.8,0-1.8-0.2-2.4-1.1
			c-0.6-0.9-0.2-2,0-2.7c0.9-2.3,1.8-4.5,2.7-6.8l2.5-6c2-4.8,3.9-9.7,5.9-14.5c0.4-1.1,0.4-1.1-0.1-1.4c-0.5-0.3-0.9-0.8-0.9-1.5
			c-0.1-0.7,0.2-1.3,0.7-1.8l0.1-0.1c0.8-0.7,1.6-1.4,2.7-1.8c2.4-0.8,4.8-1.5,7.1-2.1c0.2-0.1,0.5-0.1,0.8-0.1
			c0.9,0,1.8,0.3,2.4,0.7c1.4,1.1,0.7,2.8,0.4,3.6c-2,4.8-4,9.6-6,14.4c3.1-2.2,6.5-4.4,10.6-5.4c0.8-0.2,1.7-0.3,2.5-0.3
			c0.4,0,0.8,0,1.1,0.1c1.3,0.2,2.3,0.8,2.9,1.8c0.6,1,0.6,2.3,0,3.6c-1,2.3-3.2,3.8-5.6,3.8c-1.3,0-2.6-0.4-3.5-1.2c0,0,0,0,0,0
			c0,0-0.1,0-0.2,0c-0.2,0-0.3,0-0.3,0c-0.5,0.2-1.2,0.6-1.3,0.7c-0.1,0.2,0,0.9,0.1,1.5c0.3,2.6,0.6,5.2,0.8,7.8
			c0.1,1.3,0.2,1.3,1.4,1.3c0.8,0,2.4,0,3,1.7c0.5,1.4,0,2.6-1.4,3.5C141.4,48.6,138.2,49.5,134.9,49.5L134.9,49.5z"/>
		<path fill="#FFFFFF" d="M137.7,10c0.6,0,1.3,0.2,1.7,0.5c0.8,0.6,0.4,1.6,0,2.4c-2.5,5.9-4.9,11.7-7.3,17.7c0.9-0.7,1.8-1.4,2.7-2
			c3.2-2.2,6.4-4.3,10.3-5.3c0.7-0.2,1.5-0.3,2.3-0.3c0.3,0,0.7,0,1,0.1c2.1,0.3,2.9,2,2.1,4c-1,2.2-2.8,3.2-4.7,3.2
			c-1.1,0-2.1-0.3-2.9-1c-0.2-0.2-0.5-0.2-0.9-0.2c-0.3,0-0.5,0-0.7,0.1c-2.1,0.9-2.1,1-1.8,3.3c0.3,2.6,0.6,5.2,0.8,7.8
			c0.2,1.7,0.6,2.2,2.4,2.2c0.9,0,1.7,0,2,1c0.3,1-0.2,1.8-1,2.3c-2.7,1.7-5.7,2.7-8.9,2.7c0,0,0,0,0,0c-1.3,0-2-0.9-2.6-2
			c-1-2-1.3-4.1-1.4-6.3c0-1.4,0-2.8,0-4.2c-0.1-0.1-0.2-0.1-0.3-0.2c-0.4,0.6-1,1.1-1.3,1.8c-1.1,2.5-2.1,5-3.1,7.6
			c-0.6,1.6-1.6,2.7-3.5,2.7c-0.1,0-0.2,0-0.3,0c-0.3,0-0.7,0-1,0c-0.6,0-1.2,0-1.8,0c-0.4,0-0.7,0-1.1,0c-1.7-0.1-2.1-0.8-1.5-2.4
			c1.3-3.3,2.7-6.7,4-10c2.3-5.8,4.7-11.5,7-17.3c0.4-1,0.8-1.9-0.5-2.6c-0.6-0.3-0.6-1.2,0-1.6c0.8-0.6,1.6-1.3,2.5-1.7
			c2.3-0.8,4.7-1.5,7-2.1C137.3,10,137.5,10,137.7,10 M137.7,8c-0.4,0-0.7,0-1,0.1c-2.4,0.6-4.8,1.3-7.2,2.1c-1.2,0.4-2.2,1.2-3,1.9
			l-0.1,0.1c-0.8,0.7-1.2,1.6-1.1,2.6c0.1,0.8,0.5,1.6,1.2,2.1c0,0.1-0.1,0.2-0.1,0.2l0,0.1c-1.9,4.8-3.9,9.6-5.8,14.4l-1.2,2.9
			c-0.4,1.1-0.9,2.2-1.3,3.3c-0.9,2.2-1.8,4.5-2.7,6.7c-0.2,0.5-0.9,2.2,0,3.6c0.9,1.4,2.6,1.5,3.2,1.5c0.4,0,0.8,0,1.2,0
			c0.3,0,0.6,0,0.9,0c0.3,0,0.6,0,0.9,0c0.3,0,0.6,0,0.9,0c0.1,0,0.2,0,0.4,0c2.5,0,4.3-1.3,5.3-4c0.4-1,0.8-1.9,1.1-2.9
			c0.2,1.7,0.7,3.1,1.4,4.5c1,2.1,2.5,3.1,4.3,3.1c3.5,0,6.8-1,10-3c1.7-1.1,2.4-2.8,1.8-4.6c-0.8-2.4-3.1-2.4-3.9-2.4
			c-0.1,0-0.2,0-0.3,0c0-0.1,0-0.2-0.1-0.4c-0.3-2.6-0.6-5.2-0.8-7.8c0-0.3-0.1-0.6-0.1-0.9c0.2-0.1,0.4-0.2,0.6-0.3
			c1.1,0.8,2.4,1.2,3.8,1.2c2.8,0,5.3-1.7,6.5-4.4c0.7-1.6,0.7-3.2,0-4.5c-0.7-1.3-2-2.1-3.6-2.3c-0.4-0.1-0.8-0.1-1.2-0.1
			c-0.9,0-1.8,0.1-2.8,0.3c-3.1,0.7-5.7,2.1-8.2,3.7c1.6-3.8,3.1-7.6,4.8-11.4c0.3-0.8,1.3-3.2-0.7-4.8C139.9,8.4,138.8,8,137.7,8
			L137.7,8z"/>
	</g>
	<g>
		<path d="M55.2,49.8c-1.8,0-3.6-0.2-5.4-0.7c-5.5-1.3-7.8-5.4-6.5-11.2c0.9-3.6,2.9-6.7,6.1-9.3c5-4,10-5.9,15.3-5.9
			c0.8,0,1.6,0,2.5,0.1c1.5,0.2,3.1,0.7,4.8,1.5c2.3,1.1,3.3,3.5,2.6,6.2c-0.6,2.1-1.9,3.7-4.1,5.1c-3.6,2.3-7.6,3.2-11.1,3.8
			c-1.3,0.2-2.5,0.4-3.8,0.6c-0.3,0-0.6,0.1-0.9,0.1c0,0.5,0.1,1.1,0.5,1.6c0.5,0.7,1.4,0.8,2.1,0.9c0.2,0,0.4,0,0.5,0
			c2.8,0,5.2-1.2,7.5-2.5c0.8-0.4,1.6-0.9,2.5-1c0.2,0,0.3,0,0.5,0c1,0,1.8,0.4,2.2,1.2c0.5,0.8,0.5,1.8,0,2.7
			c-0.4,0.7-0.8,1.3-1.4,1.7C64.7,48.1,60,49.8,55.2,49.8z M64.6,29c-0.7,0-1.2,0.1-1.6,0.3c-2.1,0.9-3.7,2.5-5,4.3
			c2.5-0.5,4.6-1.2,6.3-2.7c0.3-0.2,0.5-0.6,0.8-1.1c0.2-0.4,0.2-0.6,0.1-0.6C65.2,29.1,65,29,64.6,29l0-1L64.6,29z"/>
		<path fill="#FFFFFF" d="M64.8,23.7c0.8,0,1.6,0,2.4,0.1c1.5,0.2,3.1,0.7,4.5,1.4c2,1,2.6,2.9,2.1,5c-0.6,2.1-2,3.5-3.7,4.6
			c-3.3,2.1-7,3-10.8,3.7c-1.8,0.3-3.6,0.6-5.4,0.9c-0.4,2.6,0.9,4.2,3.4,4.3c0.2,0,0.4,0,0.6,0c2.9,0,5.5-1.2,8-2.6
			c0.7-0.4,1.4-0.8,2.2-0.9c0.1,0,0.2,0,0.3,0c1.3,0,2,1.2,1.3,2.4c-0.3,0.5-0.6,1-1.1,1.4c-4.1,3-8.6,4.7-13.4,4.7
			c-1.7,0-3.4-0.2-5.1-0.6c-5.1-1.2-7-4.9-5.7-10c0.9-3.6,3-6.5,5.8-8.7C54.5,25.9,59.3,23.7,64.8,23.7 M55.9,34.9
			c3.4-0.5,6.5-1.1,9.1-3.3c0.4-0.4,0.8-0.9,1-1.4c0.6-1.3,0-2.2-1.4-2.2c0,0,0,0,0,0c-0.7,0-1.4,0.1-2,0.4
			C59.6,29.6,57.7,32,55.9,34.9 M64.8,21.7L64.8,21.7c-5.6,0-10.8,2-16,6.1c-3.4,2.7-5.6,6-6.5,9.8c-1.5,6.3,1.2,10.9,7.2,12.4
			c1.9,0.5,3.8,0.7,5.6,0.7c5.1,0,10-1.7,14.6-5.1c0.7-0.5,1.3-1.2,1.7-2.1c0.6-1.2,0.6-2.6-0.1-3.7c-0.6-1-1.8-1.6-3.1-1.6
			c-0.2,0-0.4,0-0.6,0c0,0,0,0-0.1,0c1.1-0.5,2.3-1,3.4-1.7c2.4-1.5,3.9-3.4,4.6-5.7c0.9-3.1-0.4-6-3.1-7.3
			c-1.8-0.9-3.6-1.4-5.1-1.6C66.5,21.8,65.7,21.7,64.8,21.7L64.8,21.7z M61,31.7c0.7-0.6,1.5-1.2,2.4-1.5c0.1,0,0.2-0.1,0.3-0.1
			c0,0,0,0,0,0C62.9,30.8,62,31.3,61,31.7L61,31.7z M55.9,41.1c1.2-0.2,2.5-0.4,3.7-0.6c1.8-0.3,3.8-0.8,5.8-1.4
			c-0.2,0.1-0.3,0.2-0.5,0.3c-2.1,1.2-4.5,2.4-7,2.4c-0.2,0-0.3,0-0.5,0c-0.4,0-1.1-0.1-1.4-0.5C56,41.2,55.9,41.2,55.9,41.1
			L55.9,41.1z"/>
	</g>
	<g>
		<path d="M158.6,49.5c-1.4,0-2.8-0.1-4.2-0.4c-5.1-1-7.9-4.6-7.5-9.3c0.2-2.7,1.1-5.1,2.7-7.3c2.9-4.1,7-7,12.4-8.8
			c2.5-0.8,4.7-1.2,6.9-1.2c1.5,0,3,0.2,4.5,0.6c0.9,0.2,1.7,0.6,2.4,0.9c2.8,1.5,3.7,4.1,2.5,7.2c-1,2.6-3.2,4-5,4.9
			c-4.2,2.2-8.7,3-12.9,3.6c-0.6,0.1-1.2,0.2-1.7,0.3c0,0.7,0.1,1.2,0.4,1.6c0.4,0.5,1.1,0.8,2.2,0.9c0.2,0,0.4,0,0.6,0c0,0,0,0,0,0
			c1.8,0,3.6-0.5,5.9-1.7c0.5-0.2,0.9-0.5,1.3-0.8c0.3-0.2,0.5-0.3,0.8-0.5l0.2-0.1c0.2-0.1,0.5-0.3,0.9-0.4
			c0.3-0.1,0.8-0.2,1.3-0.2c1.1,0,1.7,0.5,2.1,1c0.9,1.2,0.8,2.7-0.3,3.6c-1.4,1.2-2.8,2.4-4.4,3.2
			C165.9,48.6,162.2,49.5,158.6,49.5z M166.9,28.7c-0.3,0-0.6,0.1-0.9,0.2c-2.3,0.8-3.9,2.3-5.5,4.5c0.2,0,0.4-0.1,0.6-0.1
			c2.3-0.6,4.4-1.2,5.9-2.7c0.7-0.7,0.8-1.4,0.7-1.5C167.6,28.8,167.3,28.7,166.9,28.7z"/>
		<path fill="#FFFFFF" d="M168.8,23.4c1.4,0,2.8,0.2,4.2,0.6c0.8,0.2,1.5,0.5,2.2,0.9c2.4,1.2,3.1,3.4,2,6c-0.8,2.1-2.6,3.4-4.5,4.4
			c-3.9,2.1-8.2,2.9-12.6,3.5c-0.8,0.1-1.7,0.3-2.5,0.4c-0.4,2.6,0.8,4.2,3.4,4.4c0.2,0,0.5,0,0.7,0c2.3,0,4.3-0.8,6.3-1.8
			c0.7-0.4,1.4-0.8,2.2-1.2c0.3-0.2,0.5-0.3,0.8-0.4c0.3-0.1,0.7-0.2,1-0.2c0.5,0,0.9,0.1,1.3,0.6c0.6,0.8,0.5,1.7-0.2,2.3
			c-1.3,1.1-2.7,2.3-4.2,3.1c-3.3,1.7-6.8,2.6-10.4,2.6c-1.3,0-2.7-0.1-4-0.4c-4.6-0.9-7.1-4-6.7-8.3c0.2-2.5,1.1-4.8,2.5-6.8
			c3-4.2,7.1-6.8,11.9-8.4C164.4,23.9,166.6,23.4,168.8,23.4 M158.4,34.7c1.2-0.2,2-0.3,2.9-0.5c2.3-0.6,4.6-1.2,6.4-3
			c0.9-1,1.3-2.1,0.9-2.8c-0.3-0.5-0.9-0.7-1.6-0.7c-0.4,0-0.8,0.1-1.2,0.2C162.3,29,160.3,31.6,158.4,34.7 M168.9,21.4L168.9,21.4
			c-2.3,0-4.6,0.4-7.2,1.3c-5.5,1.8-9.9,4.9-12.9,9.2c-1.7,2.3-2.6,4.9-2.9,7.8c-0.5,5.3,2.7,9.3,8.3,10.4c1.5,0.3,3,0.4,4.4,0.4
			c3.8,0,7.6-0.9,11.3-2.8c1.8-0.9,3.2-2.1,4.6-3.3l0,0c1.5-1.3,1.7-3.4,0.4-5c-0.5-0.6-1.4-1.4-2.9-1.4c-0.2,0-0.4,0-0.5,0
			c0.7-0.3,1.4-0.6,2.1-1c1.8-0.9,4.3-2.5,5.4-5.4c1.4-3.6,0.3-6.8-3-8.5c-0.8-0.4-1.7-0.8-2.6-1C172.1,21.7,170.5,21.4,168.9,21.4
			L168.9,21.4z M163.4,31.5c0.8-0.7,1.7-1.3,2.8-1.7C165.5,30.6,164.5,31.1,163.4,31.5L163.4,31.5z M159.7,40.9
			c0.2,0,0.5-0.1,0.7-0.1c2.8-0.4,5.8-0.9,8.7-1.8c-0.2,0.1-0.4,0.2-0.6,0.3c-0.4,0.3-0.9,0.5-1.3,0.7c-2.1,1.1-3.8,1.6-5.4,1.6
			c-0.2,0-0.4,0-0.6,0c-0.7-0.1-1.2-0.2-1.4-0.5C159.8,41,159.8,40.9,159.7,40.9L159.7,40.9z"/>
	</g>
	<g>
		<path fill="#D9281F" d="M108.8,40.2c-0.3,0-0.6,0-0.8,0c-1.1,0-1.9-0.4-2.3-1c-0.4-0.6-0.5-1.5-0.1-2.5c0.6-1.7,1.2-3.4,1.8-5.1
			c0.5-1.3,1-2.7,1.4-4c1.5-4.1,2.9-8.2,4.3-12.3c0.4-1.1,0.3-1.1-0.1-1.4c-0.6-0.3-0.9-0.9-0.9-1.6c0-0.8,0.4-1.6,1.2-2
			c1.5-0.9,3-1.7,4.5-2.2c1.5-0.6,3.1-1,4.9-1.3c0.2,0,0.4-0.1,0.7-0.1c0.9,0,1.8,0.3,2.4,0.7c1.4,1,0.8,2.5,0.5,3.3l0,0.1
			c-0.8,2.2-1.6,4.4-2.4,6.6c-1.2,3.4-2.5,7-3.7,10.4c-1.1,3-2.4,6-3.6,8.9l-0.4,0.9c-0.7,1.6-1.9,2.4-3.6,2.4l-0.1,0
			c-0.3,0-0.5,0-0.8,0l-0.3,0v0L108.8,40.2z"/>
		<path fill="#FFFFFF" d="M123.3,7.8c0.6,0,1.3,0.2,1.8,0.5c0.8,0.5,0.4,1.5,0.1,2.3c-2,5.7-4,11.4-6.1,17.1c-1.2,3.3-2.6,6.5-4,9.8
			c-0.5,1.1-1.4,1.8-2.7,1.8c0,0-0.1,0-0.1,0c-0.3,0-0.5,0-0.8,0c-0.5,0-0.9,0-1.4,0c0,0,0,0,0,0c-0.5,0-0.9,0-1.4,0
			c-0.3,0-0.5,0-0.8,0c-1.5,0-2-0.7-1.5-2.2c1.1-3,2.2-6,3.2-9.1c1.5-4.1,2.9-8.2,4.4-12.3c0.3-0.9,0.7-1.9-0.6-2.6
			c-0.7-0.4-0.6-1.4,0.3-1.9c1.4-0.8,2.8-1.6,4.3-2.1c1.5-0.6,3.1-1,4.7-1.2C123,7.8,123.2,7.8,123.3,7.8 M123.3,5.8
			c-0.3,0-0.6,0-0.8,0.1c-1.8,0.3-3.5,0.7-5.1,1.3c-1.5,0.6-3.1,1.3-4.7,2.3c-1,0.6-1.7,1.7-1.7,2.9c0,0.9,0.5,1.8,1.2,2.3
			c0,0.1-0.1,0.2-0.1,0.3l0,0.1c-1.4,4.1-2.9,8.2-4.3,12.3c-0.5,1.3-0.9,2.7-1.4,4c-0.6,1.7-1.2,3.4-1.8,5.1
			c-0.5,1.3-0.4,2.5,0.2,3.4c0.6,0.9,1.7,1.4,3.1,1.4c0.3,0,0.6,0,0.9,0c0.2,0,0.5,0,0.7,0l0.7,0h2v0c0,0,0.1,0,0.1,0l0.1,0
			c2,0,3.7-1.1,4.5-3l0.4-0.9c1.3-2.9,2.5-5.9,3.7-9c1.3-3.5,2.5-7,3.8-10.5c0.8-2.2,1.6-4.4,2.3-6.6l0-0.1c0.3-0.8,1.1-3.1-0.9-4.5
			C125.5,6.1,124.4,5.8,123.3,5.8L123.3,5.8z"/>
	</g>
	<g>
		<path fill="#D9281F" d="M106.8,49.7c-0.6,0-1.2-0.1-1.8-0.3c-1.2-0.3-2.1-1-2.5-1.9c-0.5-0.9-0.5-2,0-3.2c1-2.5,3.7-4.3,6.6-4.3
			c2.5,0,4.2,1.2,4.4,3.2c0.1,0.7-0.1,1.5-0.4,2.3C112.1,48,109.6,49.7,106.8,49.7z"/>
		<path fill="#FFFFFF" d="M109.1,41.1c2,0,3.2,0.8,3.4,2.3c0.1,0.6-0.1,1.2-0.3,1.8c-0.9,2.2-3.1,3.5-5.4,3.5c-0.5,0-1-0.1-1.5-0.2
			c-1.9-0.5-2.6-1.9-1.9-3.8C104.2,42.6,106.6,41.1,109.1,41.1C109.1,41.1,109.1,41.1,109.1,41.1 M109.1,39.1L109.1,39.1L109.1,39.1
			c-3.4,0-6.5,2-7.6,4.9c-0.7,1.8-0.4,3.2,0,4c0.4,0.8,1.3,1.9,3.1,2.4c0.7,0.2,1.4,0.3,2.1,0.3c3.1,0,6.1-1.9,7.2-4.8
			c0.4-0.9,0.5-1.9,0.4-2.8C114.3,40.7,112.2,39.1,109.1,39.1L109.1,39.1z"/>
	</g>
	<path fill="none" d="M82.8,41.3c0-0.2,0-0.6,0.2-1c1.1-3.4,2.5-6.6,4.9-9.2c1.1-1.2,2.4-2,4-2.1c1.4-0.1,2.2,0.6,2.4,1.9
		c0.1,0.8,0.1,1.6-0.1,2.4c-0.9,3.6-2.6,6.8-5.4,9.2c-0.7,0.6-1.7,1.1-2.6,1.5C84.1,44.8,82.8,43.9,82.8,41.3z"/>
	<path fill="none" d="M55.9,34.9c1.8-2.9,3.7-5.3,6.7-6.6c0.6-0.3,1.3-0.3,2-0.4c1.4,0,2,0.9,1.4,2.2c-0.2,0.5-0.6,1-1,1.4
		C62.5,33.8,59.3,34.4,55.9,34.9z"/>
	<path fill="none" d="M158.4,34.7c1.9-3.1,3.9-5.7,7.3-6.8c1.3-0.4,2.4-0.2,2.9,0.5c0.4,0.7,0.1,1.8-0.9,2.8c-1.8,1.8-4.1,2.4-6.4,3
		C160.4,34.4,159.5,34.5,158.4,34.7z"/>
</g>
<g display="none">
	<path display="inline" d="M109.8,54.4h2.2v0.9h7v1.9h-3.4v0.9h2.7v1.7h-2.7v3.4h-1.9v-3.4h-2.5v-1.7h2.5v-0.9h-4.9v0.9h2v1.7h-2
		v3.7h-1.9v-3.7h-2.1v-1.7h2.1v-0.9h-2.3v5c0.3-0.5,0.5-1.2,0.5-1.9h1.5c0,1.3-0.3,2.3-0.8,3.2l-1.2-0.7v0.4c0,1.7-0.1,3.3-0.4,4.9
		c-0.2,1.3-0.5,2.6-1,3.9l-1.8-1.1c0.5-1.6,0.8-3.1,1-4.3c0.2-1.5,0.3-2.9,0.3-4.4v-7.1h7.3V54.4z M116.3,63.4l0.9,1.8
		c-1.4,0.2-3,0.3-4.7,0.3V66h5.7v1.7h-5.7v0.4h6.2v1.8h-6.2c0,0.9-0.2,1.5-0.6,1.8c-0.4,0.3-1.1,0.5-2.1,0.5c-0.6,0-1.2-0.1-1.8-0.2
		l-0.3-2c0.7,0.2,1.4,0.3,2.1,0.3c0.3,0,0.4-0.2,0.5-0.5h-5.9v-1.8h6v-0.4h-5.3V66h5.3v-0.4c-1.5,0.1-3,0.1-4.7,0.1l-0.5-1.8
		C108.8,64,112.5,63.8,116.3,63.4z M109.1,60.3h1.6v2.8h-1.6V60.3z M111.5,60.3h1.6c0,1.2-0.2,2.2-0.7,3l-1.5-0.8
		C111.3,61.9,111.5,61.2,111.5,60.3z M115.8,60.3h1.5v1.2c0,0.4,0.1,0.6,0.3,0.6c0.1,0,0.1-0.1,0.1-0.2c0-0.1,0-0.4,0-0.9l1.2,0.4
		c0,0.4,0,0.7-0.1,0.9c0,0.4-0.1,0.7-0.4,0.8c-0.2,0.1-0.5,0.2-0.9,0.2c-0.2,0-0.4,0-0.8-0.1c-0.7-0.1-1-0.5-1-1.5V60.3z"/>
	<path display="inline" d="M121,57.5h2.5v-3.1h2.2v3.1h2.2v2.1h-2.2v2.6c0.5-0.2,1-0.3,1.5-0.5l0.3,1.9c-0.6,0.2-1.1,0.5-1.8,0.7
		v4.7c0,1.1-0.1,1.9-0.4,2.3c-0.4,0.5-1,0.7-2,0.7c-0.7,0-1.4-0.1-2-0.2l-0.4-2.3c0.7,0.2,1.4,0.3,2.2,0.3c0.2,0,0.3-0.1,0.3-0.3
		c0.1-0.2,0.1-0.6,0.1-1v-3.4c-0.7,0.2-1.4,0.5-2.2,0.7l-0.8-2.2c1-0.2,2-0.4,3-0.7v-3.3H121V57.5z M136.3,54.9l1.5,1.7
		c-1.2,0.4-2.6,0.7-4.1,1c-0.2,0-0.3,0.1-0.5,0.1v4l4.9-0.8l0.2,2.2l-5.2,0.8v4.8c0,0.4,0.1,0.7,0.3,0.7c0.1,0.1,0.4,0.1,1,0.1
		c0.7,0,1.2-0.1,1.3-0.3c0.2-0.1,0.3-0.4,0.4-0.9c0.1-0.3,0.2-0.7,0.2-1.4l2.1,1.1c-0.3,1.7-0.7,2.8-1.2,3.1c-0.1,0.2-0.5,0.3-1,0.3
		c-0.3,0.1-0.9,0.1-1.8,0.1c-0.8,0-1.5-0.1-1.9-0.2c-1.1-0.1-1.6-0.9-1.6-2.4v-4.9l-2.9,0.5l-0.4-2.2L131,62v-3.9
		c-0.7,0.1-1.5,0.2-2.3,0.3l-0.9-2.1c1.8-0.2,3.4-0.4,4.8-0.6C134,55.5,135.3,55.2,136.3,54.9z"/>
	<path display="inline" d="M140.8,55.1h16.9v2.2h-7.4c-0.2,0.6-0.3,1.2-0.5,1.8h6.3v12.9h-2.2v-0.8h-9.3v0.8h-2.2V59.1h4.9
		c0.2-0.6,0.3-1.2,0.5-1.8h-7V55.1z M144.6,64.2h9.3v-2.9h-9.3V64.2z M144.6,69.1h9.3v-2.8h-9.3V69.1z"/>
	<path display="inline" d="M164.3,54l2.1,0.6c-0.4,0.5-0.8,1.1-1.3,1.6v4h-2.3v-1.9c-0.6,0.4-1.1,0.8-1.8,1.1l-1-1.9
		C162,56.4,163.4,55.2,164.3,54z M165,69.4h-3v-8.7h13.8v8.7h-3c0.5,0.2,1.1,0.3,1.7,0.4c1,0.2,1.9,0.3,2.8,0.5l-1.1,2
		c-0.9-0.2-1.9-0.4-2.8-0.7c-1.1-0.3-2-0.7-3-1.1l0.9-1h-5l1.1,1.3c-0.8,0.3-1.7,0.6-2.6,0.9c-1,0.3-2.1,0.5-3.3,0.7l-0.9-2
		c1.2-0.2,2.2-0.3,3.1-0.5C164.1,69.6,164.5,69.5,165,69.4z M164.1,63h9.5v-0.6h-9.5V63z M164.1,65.3h9.5v-0.7h-9.5V65.3z
		 M164.1,67.6h9.5v-0.7h-9.5V67.6z M167.7,54.3h2.2v1.4c1.9-0.3,3.8-0.7,5.5-1.1l1.3,1.9c-2.1,0.5-4.3,0.9-6.8,1.2v0.1
		c0,0.4,0.4,0.6,1.2,0.7c0.3,0,0.8,0,1.4,0c1.4,0,2.2,0,2.4-0.1c0.3-0.1,0.5-0.2,0.5-0.4c0.1-0.1,0.2-0.4,0.2-1l2.2,1.2
		c-0.1,0.9-0.4,1.4-0.9,1.7c-0.3,0.1-0.7,0.2-1.3,0.2c-0.3,0.1-1.4,0.1-3.1,0.1c-0.8,0-1.5,0-2.1-0.1c-1.7,0-2.6-0.6-2.6-1.8V54.3z"
		/>
</g>
<g>
	<path fill="#FFFFFF" d="M110.2,54.4h2.2v0.9h7.1v2h-3.5v0.9h2.7V60h-2.7v3.5h-2V60h-2.5v-1.7h2.5v-0.9h-5v0.9h2.1V60h-2.1v3.7h-1.9
		V60H105v-1.7h2.1v-0.9h-2.4v5.1c0.3-0.6,0.5-1.2,0.5-2h1.6c0,1.3-0.3,2.4-0.9,3.3l-1.2-0.7v0.4c0,1.7-0.1,3.4-0.4,5
		c-0.2,1.3-0.6,2.6-1,4l-1.9-1.1c0.5-1.7,0.8-3.1,1-4.3c0.2-1.5,0.3-3,0.3-4.5v-7.2h7.4V54.4z M116.8,63.6l0.9,1.8
		c-1.5,0.2-3.1,0.3-4.8,0.4v0.5h5.8v1.7h-5.8v0.4h6.3v1.8h-6.3c0,0.9-0.2,1.5-0.6,1.8c-0.4,0.4-1.1,0.5-2.1,0.5
		c-0.7,0-1.3-0.1-1.8-0.2l-0.3-2.1c0.7,0.2,1.4,0.3,2.1,0.3c0.3,0,0.4-0.2,0.5-0.5h-6v-1.8h6.1v-0.4h-5.4v-1.7h5.4v-0.4
		c-1.5,0.1-3.1,0.1-4.7,0.1l-0.5-1.8C109.2,64.1,113,63.9,116.8,63.6z M109.5,60.4h1.6v2.8h-1.6V60.4z M112,60.4h1.6
		c0,1.2-0.2,2.2-0.7,3.1l-1.6-0.9C111.8,62,112,61.3,112,60.4z M116.4,60.3h1.6v1.3c0,0.4,0.1,0.6,0.3,0.6c0.1,0,0.1-0.1,0.1-0.2
		c0-0.1,0-0.4,0-0.9l1.3,0.4c0,0.4,0,0.7-0.1,1c0,0.4-0.2,0.7-0.4,0.9c-0.2,0.1-0.5,0.2-1,0.2c-0.2,0-0.4,0-0.8-0.1
		c-0.7-0.1-1-0.6-1-1.5V60.3z"/>
	<path fill="#FFFFFF" d="M121.7,57.6h2.6v-3.1h2.3v3.1h2.2v2.2h-2.2v2.7c0.5-0.2,1-0.3,1.5-0.5l0.3,2c-0.6,0.2-1.2,0.5-1.8,0.7v4.8
		c0,1.2-0.1,1.9-0.4,2.4c-0.4,0.5-1,0.7-2,0.7c-0.7,0-1.4-0.1-2.1-0.2l-0.4-2.3c0.7,0.2,1.5,0.3,2.2,0.3c0.2,0,0.3-0.1,0.4-0.3
		c0.1-0.2,0.1-0.6,0.1-1.1v-3.5c-0.7,0.2-1.5,0.5-2.2,0.7l-0.8-2.3c1.1-0.2,2.1-0.5,3-0.7v-3.3h-2.6V57.6z M137.3,54.9l1.6,1.7
		c-1.2,0.4-2.6,0.7-4.1,1c-0.2,0-0.3,0.1-0.5,0.1v4l5-0.8l0.3,2.3l-5.3,0.8V69c0,0.4,0.1,0.7,0.3,0.7c0.1,0.1,0.5,0.1,1,0.1
		c0.8,0,1.2-0.1,1.3-0.3c0.2-0.1,0.3-0.4,0.4-0.9c0.1-0.3,0.2-0.8,0.2-1.4l2.1,1.2c-0.3,1.8-0.7,2.9-1.3,3.2
		c-0.1,0.2-0.5,0.3-1.1,0.4c-0.3,0.1-0.9,0.1-1.8,0.1c-0.8,0-1.5-0.1-2-0.2c-1.1-0.1-1.7-0.9-1.7-2.5v-5l-3,0.5l-0.4-2.3l3.4-0.5v-4
		c-0.8,0.1-1.5,0.2-2.3,0.3l-0.9-2.1c1.8-0.2,3.5-0.4,4.9-0.6C135,55.4,136.2,55.2,137.3,54.9z"/>
	<path fill="#FFFFFF" d="M145.2,54.4h2.2v1.4h3.2v2h-0.9c-0.2,0.9-0.4,1.7-0.7,2.5h1.9v2.1h-3.6v1.2h3.4v2.1h-3
		c1.1,0.7,2.1,1.4,2.9,2.1l-1.3,1.9c-0.6-0.7-1.2-1.3-1.9-1.8v4.7h-2.1v-4.3c-0.1,0.1-0.1,0.2-0.2,0.3c-1,1.2-1.8,2-2.5,2.4
		l-1.1-1.9c0.7-0.4,1.4-1.1,2.2-1.9c0.4-0.5,0.8-1,1.1-1.4h-2.6v-2.1h3.2v-1.2h-3.5v-2.1h1.9c-0.1-0.8-0.2-1.7-0.4-2.5h-1.1v-2h3
		V54.4z M145.7,60.3h1.2c0.3-0.8,0.5-1.6,0.7-2.5h-2.5C145.4,58.6,145.6,59.5,145.7,60.3z M158.1,54.4l1.2,2.1
		c-1.5,0.5-3.3,0.9-5.4,1.2v2.8h5.7v2.1H158v10h-2.2v-10h-2c-0.1,3-0.3,5.2-0.7,6.5c-0.4,1.4-1,2.5-1.7,3.5l-1.8-1.5
		c0.6-0.8,1.1-1.7,1.4-2.9c0.4-1.4,0.6-4,0.6-7.9v-4.5C154.3,55.5,156.4,55,158.1,54.4z"/>
	<path fill="#FFFFFF" d="M169.5,54.6v6.6h-5.4v11.1h-2.2V54.6H169.5z M164.1,57.1h3.2v-0.5h-3.2V57.1z M164.1,59.3h3.2v-0.4h-3.2
		V59.3z M172.1,54.6h6.7v15c0,1.8-0.8,2.8-2.5,2.8c-0.6,0-1.4,0-2.2-0.1l-0.2-0.8h-1.5v-1.5c-2.4,0.2-4.9,0.4-7.7,0.5l-0.3-2
		c0.5,0,1,0,1.5-0.1v-5.1h-1.3v-1.8h10.9v1.8h-1V68c0.3,0,0.5-0.1,0.8-0.1l0.3,1.8c-0.4,0-0.7,0.1-1.1,0.1v0.4
		c0.4,0,0.8,0.1,1.2,0.1c0.5,0,0.7-0.5,0.7-1.4v-7.6H171v-6.6H172.1z M168.2,64h4.3v-0.5h-4.3V64z M168.2,66.1h4.3v-0.5h-4.3V66.1z
		 M168.2,68.5c1.5-0.1,3-0.2,4.3-0.3v-0.4h-4.3V68.5z M173.2,57.1h3.4v-0.4h-3.4V57.1z M176.6,59.3v-0.5h-3.4v0.5H176.6z"/>
</g>
</svg>
