<?xml version="1.0" encoding="utf-8"?>
<!-- Generator: Adobe Illustrator 18.1.1, SVG Export Plug-In . SVG Version: 6.00 Build 0)  -->
<svg version="1.1" id="图层_1" xmlns="http://www.w3.org/2000/svg" xmlns:xlink="http://www.w3.org/1999/xlink" x="0px" y="0px"
	 viewBox="0 0 50 50" enable-background="new 0 0 50 50" xml:space="preserve">
<image display="none" overflow="visible" enable-background="new    " width="88" height="88" xlink:href="EEE15A2D.png"  transform="matrix(0.5767 0 0 0.5767 2.0087 1.4167)">
</image>
<image display="none" overflow="visible" enable-background="new    " width="1024" height="589" xlink:href="EEE15A2F.png"  transform="matrix(4.768880e-002 0 0 4.768880e-002 0.5 7.4771)">
</image>
<g>
	<path fill="#1F1E1D" d="M35.2,42.5H14.7c-1.3,0-2.4-1.1-2.4-2.4V12.3c0-1.3,1.1-2.4,2.4-2.4h20.5c1.3,0,2.4,1.1,2.4,2.4v27.7
		C37.6,41.4,36.6,42.5,35.2,42.5z"/>
	<path fill="#F4F5F9" d="M35.2,11.7H14.7c-0.3,0-0.6,0.3-0.6,0.6v27.7c0,0.3,0.3,0.6,0.6,0.6H31l4.8-4.8V12.3
		C35.8,12,35.6,11.7,35.2,11.7z"/>
	<path fill="#DCDEE5" d="M28.6,9.9h-1.8V9.3c0-1-0.8-1.8-1.8-1.8s-1.8,0.8-1.8,1.8v0.6h-1.8c-0.7,0-1.2,0.6-1.2,1.2v1.2h9.7v-1.2
		C29.8,10.4,29.3,9.9,28.6,9.9z M25,9.9c-0.3,0-0.6-0.3-0.6-0.6s0.3-0.6,0.6-0.6s0.6,0.3,0.6,0.6S25.3,9.9,25,9.9z"/>
	<path fill="#BFC0C7" d="M29.8,12.9h-9.7c-0.3,0-0.6-0.3-0.6-0.6l0,0c0-0.3,0.3-0.6,0.6-0.6h9.7c0.3,0,0.6,0.3,0.6,0.6l0,0
		C30.4,12.7,30.2,12.9,29.8,12.9z"/>
	<g>
		<path fill="#C6CDDF" d="M20.8,16.4h-3.6c-0.3,0-0.6-0.3-0.6-0.6l0,0c0-0.3,0.3-0.6,0.6-0.6h3.6c0.3,0,0.6,0.3,0.6,0.6l0,0
			C21.4,16.1,21.1,16.4,20.8,16.4z"/>
		<path fill="#C6CDDF" d="M28,18.8h-1.8c-0.3,0-0.6-0.3-0.6-0.6l0,0c0-0.3,0.3-0.6,0.6-0.6H28c0.3,0,0.6,0.3,0.6,0.6l0,0
			C28.6,18.6,28.3,18.8,28,18.8z"/>
	</g>
	<g>
		<path fill="#D6DCEB" d="M32.9,18.8h-2.4c-0.3,0-0.6-0.3-0.6-0.6l0,0c0-0.3,0.3-0.6,0.6-0.6h2.4c0.3,0,0.6,0.3,0.6,0.6l0,0
			C33.5,18.6,33.2,18.8,32.9,18.8z"/>
		<path fill="#D6DCEB" d="M32.9,16.4h-9.7c-0.3,0-0.6-0.3-0.6-0.6l0,0c0-0.3,0.3-0.6,0.6-0.6h9.7c0.3,0,0.6,0.3,0.6,0.6l0,0
			C33.5,16.1,33.2,16.4,32.9,16.4z"/>
	</g>
	<g>
		<path fill="#D6DCEB" d="M32.9,21.2h-7.3c-0.3,0-0.6-0.3-0.6-0.6l0,0c0-0.3,0.3-0.6,0.6-0.6h7.3c0.3,0,0.6,0.3,0.6,0.6l0,0
			C33.5,21,33.2,21.2,32.9,21.2z"/>
		<path fill="#D6DCEB" d="M23.8,18.8h-6.6c-0.3,0-0.6-0.3-0.6-0.6l0,0c0-0.3,0.3-0.6,0.6-0.6h6.6c0.3,0,0.6,0.3,0.6,0.6l0,0
			C24.4,18.6,24.1,18.8,23.8,18.8z"/>
	</g>
	<path fill="#D6DCEB" d="M31,40.7v-4.2c0-0.3,0.3-0.6,0.6-0.6h4.2L31,40.7z"/>
	<g>
		<polygon fill="#79BD34" points="34.2,26.6 31.7,24.2 22.7,33.1 18.3,28.7 15.8,31.1 22.7,38 22.7,38 22.8,38 		"/>
		<polygon fill="#D6DCEB" points="34.2,26.6 31.7,24.2 22.7,33.1 18.3,28.7 15.8,31.1 22.7,38 22.7,38 22.8,38 		"/>
	</g>
</g>
</svg>
