<?xml version="1.0" encoding="utf-8"?>
<!-- Generator: Adobe Illustrator 18.1.1, SVG Export Plug-In . SVG Version: 6.00 Build 0)  -->
<svg version="1.1" id="图层_1" xmlns="http://www.w3.org/2000/svg" xmlns:xlink="http://www.w3.org/1999/xlink" x="0px" y="0px"
	 viewBox="0 0 50 50" enable-background="new 0 0 50 50" xml:space="preserve">
<image display="none" overflow="visible" enable-background="new    " width="88" height="88" xlink:href="A48122EC.png"  transform="matrix(0.5767 0 0 0.5767 2.0087 1.4167)">
</image>
<image display="none" overflow="visible" enable-background="new    " width="1024" height="589" xlink:href="A48122ED.png"  transform="matrix(4.768880e-002 0 0 4.768880e-002 0.5 7.4771)">
</image>
<g id="XMLID_1_">
	<path id="XMLID_12_" fill="#F0C41B" d="M41.1,38.1H8.9c-1.1,0-2-0.9-2-2V13.9c0-1.1,0.9-2,2-2h32.1c1.1,0,2,0.9,2,2v22.2
		C43.1,37.2,42.2,38.1,41.1,38.1"/>
	<rect id="XMLID_11_" x="6.9" y="15" fill="#806F5E" width="36.2" height="5"/>
	<path id="XMLID_10_" fill="#F9EAB0" d="M16.3,24.4h-5.6c-0.3,0-0.6-0.3-0.6-0.6c0-0.3,0.3-0.6,0.6-0.6h5.6c0.3,0,0.6,0.3,0.6,0.6
		C16.9,24.1,16.6,24.4,16.3,24.4"/>
	<path id="XMLID_9_" fill="#F9EAB0" d="M24.4,24.4h-5.6c-0.3,0-0.6-0.3-0.6-0.6c0-0.3,0.3-0.6,0.6-0.6h5.6c0.3,0,0.6,0.3,0.6,0.6
		C25,24.1,24.7,24.4,24.4,24.4"/>
	<path id="XMLID_8_" fill="#F9EAB0" d="M11.3,27.5h-0.6c-0.3,0-0.6-0.3-0.6-0.6s0.3-0.6,0.6-0.6h0.6c0.3,0,0.6,0.3,0.6,0.6
		C11.9,27.2,11.6,27.5,11.3,27.5"/>
	<path id="XMLID_7_" fill="#F9EAB0" d="M15,27.5h-1.2c-0.3,0-0.6-0.3-0.6-0.6s0.3-0.6,0.6-0.6H15c0.3,0,0.6,0.3,0.6,0.6
		C15.7,27.2,15.4,27.5,15,27.5"/>
	<path id="XMLID_6_" fill="#F9EAB0" d="M18.1,27.5h-0.6c-0.3,0-0.6-0.3-0.6-0.6s0.3-0.6,0.6-0.6h0.6c0.3,0,0.6,0.3,0.6,0.6
		C18.8,27.2,18.5,27.5,18.1,27.5"/>
	<path id="XMLID_5_" fill="#F9EAB0" d="M21.9,27.5h-1.2c-0.3,0-0.6-0.3-0.6-0.6s0.3-0.6,0.6-0.6h1.2c0.3,0,0.6,0.3,0.6,0.6
		C22.5,27.2,22.2,27.5,21.9,27.5"/>
	<path id="XMLID_4_" fill="#F9EAB0" d="M24.4,27.5c-0.2,0-0.3-0.1-0.4-0.2c-0.1-0.1-0.2-0.3-0.2-0.4c0-0.2,0.1-0.3,0.2-0.4
		c0.2-0.2,0.6-0.2,0.9,0c0.1,0.1,0.2,0.3,0.2,0.4c0,0.2-0.1,0.3-0.2,0.4C24.7,27.4,24.5,27.5,24.4,27.5"/>
	<path id="XMLID_3_" fill="#DB2215" d="M35.6,31.2c0,2.1-1.7,3.7-3.7,3.7s-3.7-1.7-3.7-3.7s1.7-3.7,3.7-3.7S35.6,29.2,35.6,31.2"/>
	<path id="XMLID_2_" fill="#245EA9" d="M40,31.2c0,2.1-1.7,3.7-3.7,3.7c-2.1,0-3.7-1.7-3.7-3.7s1.7-3.7,3.7-3.7
		C38.3,27.5,40,29.2,40,31.2"/>
</g>
</svg>
