<?xml version="1.0" encoding="utf-8"?>
<!-- Generator: Adobe Illustrator 18.1.1, SVG Export Plug-In . SVG Version: 6.00 Build 0)  -->
<svg version="1.1" id="图层_1" xmlns="http://www.w3.org/2000/svg" xmlns:xlink="http://www.w3.org/1999/xlink" x="0px" y="0px"
	 viewBox="0 0 40 320" enable-background="new 0 0 40 320" xml:space="preserve">
<g>
	<path fill="#D74348" d="M37.5,9.2l-2.9,15.2c-0.1,0.6-0.6,1-1.2,0.9H10.8L7.9,7.9h28.4c0.3,0,0.7,0.1,0.9,0.4
		C37.4,8.6,37.6,8.9,37.5,9.2z"/>
	<circle fill="#DBDDE4" cx="31.2" cy="32.2" r="2.8"/>
	<circle fill="#DBDDE4" cx="12.1" cy="32.2" r="2.8"/>
	<path fill="#222B3F" d="M3.7,5C3,5,2.5,5.5,2.5,6.1S3,7.3,3.7,7.3c1.9,0.1,2.2,1.9,2.2,1.9l3.1,19.3c0,0,0.2,0.9,1.2,1h22.7
		c0.6,0,1.2-0.5,1.2-1.2s-0.5-1.2-1.2-1.2H11.1L7.9,7.9C7.5,6.3,5.6,5,3.7,5z"/>
	<g>
		<circle fill="#222B3F" cx="12.1" cy="32.2" r="2.8"/>
		<g>
			<circle fill="#F4F5F9" cx="12.1" cy="32.2" r="1.3"/>
		</g>
	</g>
	<g>
		<circle fill="#222B3F" cx="31.2" cy="32.2" r="2.8"/>
		<g>
			<circle fill="#F4F5F9" cx="31.2" cy="32.2" r="1.3"/>
		</g>
	</g>
</g>
<g>
	<g>
		<path fill="#DBDDE4" d="M8.4,44.2h28.9v31.7H5.5c1.6,0,2.9-1.3,2.9-2.9V44.2z"/>
		<g>
			<path fill="#222B3F" d="M13.6,53.2v2.4c0,0.1,0,0.2,0,0.3h-1.4c0,0,0-0.1,0-0.3v-4.9h1.5l1.6,2.7V51c0-0.1,0-0.2,0-0.3h1.4
				c0,0.1,0,0.2,0,0.3v4.9h-1.4L13.6,53.2z"/>
			<path fill="#222B3F" d="M18.1,50.7h4V52c0,0-0.2,0-0.3,0h-2.3v0.5h2v1.3h-2v0.8h2.3c0.1,0,0.2,0,0.3,0v1.3h-4c0-0.1,0-0.2,0-0.3
				V51C18.1,50.9,18.1,50.9,18.1,50.7z"/>
			<path fill="#222B3F" d="M27.9,50.7h1.5L28,55.9h-1.2l-0.7-2.6l-0.6,2.6h-1.3L23,50.8h1.5c0,0.1,0,0.2,0,0.3l0.4,2.2l0.6-2.5h1.3
				l0.6,2.6l0.5-2.3c0,0,0-0.1,0-0.2V50.7z"/>
			<path fill="#222B3F" d="M29.9,54.2h1.5v0.1c0,0.2,0,0.3,0.2,0.4c0.1,0.1,0.3,0.2,0.5,0.2c0.4,0,0.6-0.1,0.6-0.4
				c0-0.1-0.1-0.3-0.3-0.4c0,0-0.3-0.2-0.9-0.5c-0.4-0.2-0.7-0.4-0.9-0.6c-0.3-0.3-0.4-0.6-0.4-1c0-0.4,0.2-0.8,0.5-1
				c0.3-0.3,0.7-0.4,1.3-0.4c0.6,0,1.1,0.2,1.5,0.5s0.5,0.7,0.5,1.1h-1.5c0-0.3-0.2-0.5-0.5-0.5c-0.2,0-0.3,0-0.4,0.1
				c0,0-0.1,0.1-0.1,0.2c0,0.1,0.2,0.3,0.5,0.4c0.2,0.1,0.4,0.2,0.7,0.3c0.9,0.4,1.3,1,1.3,1.7c0,0.4-0.2,0.7-0.5,1
				c-0.3,0.3-0.9,0.5-1.6,0.5c-0.7,0-1.2-0.2-1.6-0.6C30.1,55.1,29.9,54.7,29.9,54.2z"/>
		</g>
		<path fill="#222B3F" d="M2.5,59.3v13.6c0,1.6,1.3,2.9,2.9,2.9s2.9-1.3,2.9-2.9V59.3H2.5z"/>
		<rect x="8.6" y="44.2" fill="#222B3F" width="28.9" height="3.5"/>
	</g>
	<g>
		<rect x="12.2" y="59.2" fill="#D74348" width="8.6" height="8.8"/>
		<rect x="23" y="59.2" fill="#F4F5F9" width="11" height="1.5"/>
		<rect x="23" y="62.8" fill="#F4F5F9" width="11" height="1.5"/>
		<rect x="23" y="66.4" fill="#F4F5F9" width="11" height="1.5"/>
		<rect x="12.3" y="70.1" fill="#F4F5F9" width="21.8" height="1.5"/>
	</g>
</g>
<path fill="#E34149" d="M18.7,316.8c-9.9-14.4-11.8-15.9-11.8-21.2c0-7.2,5.9-13.1,13.1-13.1s13.1,5.9,13.1,13.1
	c0,5.3-1.8,6.8-11.8,21.2C20.7,317.7,19.3,317.7,18.7,316.8z M20,301.1c3,0,5.5-2.4,5.5-5.5s-2.4-5.5-5.5-5.5s-5.5,2.4-5.5,5.5
	S17,301.1,20,301.1z"/>
<path fill="#E34149" d="M20,242.5c-9.7,0-17.5,7.8-17.5,17.5c0,9.7,7.8,17.5,17.5,17.5s17.5-7.8,17.5-17.5
	C37.5,250.3,29.7,242.5,20,242.5z M20,249.3c3.4,0,6.2,2.8,6.2,6.2c0,3.4-2.8,6.2-6.2,6.2s-6.2-2.8-6.2-6.2
	C13.8,252.1,16.6,249.3,20,249.3z M20,273.5c-4.1,0-7.9-1.9-10.3-4.8c1.3-2.5,3.9-4.2,7-4.2c0.2,0,0.3,0,0.5,0.1
	c0.9,0.3,1.9,0.5,2.9,0.5s2-0.2,2.9-0.5c0.2,0,0.3-0.1,0.5-0.1c3,0,5.6,1.7,7,4.2C27.9,271.7,24.1,273.5,20,273.5z"/>
<g>
	<g>
		<circle fill="#E34149" cx="15.3" cy="217" r="1.5"/>
		<circle fill="#E34149" cx="24.6" cy="223" r="1.5"/>
		<path fill="#E34149" d="M36.7,221.9l-0.5-0.7c-0.6-0.8-0.6-1.9,0-2.7l0.5-0.7c0.8-1.1,0.4-2.7-0.8-3.3l-0.8-0.4
			c-0.9-0.5-1.3-1.4-1.2-2.4l0.2-0.9c0.2-1.3-0.8-2.6-2.2-2.7l-0.9,0c-1,0-1.8-0.7-2.1-1.6l-0.3-0.9c-0.4-1.3-1.8-2-3.1-1.5
			l-0.8,0.4c-0.9,0.4-1.9,0.2-2.6-0.6l-0.6-0.7c-0.9-1-2.5-1-3.4,0l-0.6,0.7c-0.6,0.7-1.7,1-2.6,0.6l-0.8-0.3
			c-1.3-0.5-2.7,0.2-3.1,1.5l-0.2,0.9c-0.3,0.9-1.1,1.6-2.1,1.7l-0.9,0.1c-1.4,0.1-2.4,1.3-2.1,2.7l0.2,0.9c0.2,1-0.3,1.9-1.1,2.4
			L4,214.7c-1.2,0.7-1.5,2.2-0.7,3.3l0.5,0.7c0.6,0.8,0.6,1.9,0,2.7l-0.5,0.7c-0.8,1.1-0.4,2.7,0.8,3.3l0.8,0.4
			c0.9,0.5,1.3,1.4,1.2,2.4l-0.2,0.9c-0.2,1.3,0.8,2.6,2.2,2.7l0.9,0c1,0,1.8,0.7,2.1,1.6l0.3,0.9c0.4,1.3,1.8,2,3.1,1.5l0.8-0.4
			c0.9-0.4,1.9-0.2,2.6,0.6l0.6,0.7c0.9,1,2.5,1,3.4,0l0.6-0.7c0.6-0.7,1.7-1,2.6-0.6l0.8,0.3c1.3,0.5,2.7-0.2,3.1-1.5l0.2-0.9
			c0.3-0.9,1.1-1.6,2.1-1.7l0.9-0.1c1.4-0.1,2.4-1.3,2.1-2.7l-0.2-0.9c-0.2-1,0.3-1.9,1.1-2.4l0.8-0.4
			C37.2,224.6,37.5,223,36.7,221.9z M11.8,217c0-2,1.6-3.5,3.5-3.5s3.5,1.6,3.5,3.5s-1.6,3.5-3.5,3.5S11.8,219,11.8,217z M16,226.1
			c-0.3,0.4-0.8,0.4-1.2,0.1l0,0c-0.4-0.3-0.4-0.8-0.1-1.2l9.3-11.2c0.3-0.4,0.8-0.4,1.2-0.1s0.4,0.8,0.1,1.2L16,226.1z M24.6,226.5
			c-2,0-3.5-1.6-3.5-3.5s1.6-3.5,3.5-3.5s3.5,1.6,3.5,3.5S26.6,226.5,24.6,226.5z"/>
	</g>
</g>
<g>
	<g>
		<polygon fill="#222B3F" points="10.4,178.7 16.4,178.7 13.2,184.7 7.1,184.7 		"/>
		<path fill="#222B3F" d="M2.5,178.7l3.4-6.2c0,0,0.7-1.4,2.4-1.4h6.1l-4.1,7.6H2.5z"/>
		<path fill="#222B3F" d="M17.5,184.7l-1.9,3.5c0,0-0.4,0.8-1.3,0.8h-3.4l2.3-4.3H17.5z"/>
		<path fill="#222B3F" d="M16.4,178.7l2.1-3.8c0.6-1.2,1.8-1.1,1.8-1.1h4.2l-2.1,3.8c-0.6,1.1-1.5,1-1.9,1.1H16.4"/>
		<path fill="#222B3F" d="M24.5,173.8l1.1-2.1c0.3-0.7,1-0.6,1-0.6h2.2l-1.1,2.1c-0.3,0.6-0.8,0.6-1,0.6H24.5"/>
	</g>
	<g>
		<g>
			<g enable-background="new    ">
				<g>
					<defs>
						<polygon id="SVGID_1_" points="16.3,188.9 21.2,179.3 37.5,179.3 32.5,188.9 						"/>
					</defs>
					<clipPath id="SVGID_2_">
						<use xlink:href="#SVGID_1_"  overflow="visible"/>
					</clipPath>
					<g clip-path="url(#SVGID_2_)">
						<g>
							<g>
								<g>
									<path fill="#CB2935" d="M25.5,179.3c-1.4,0-2.7,0.5-4,1.4c-1.1,0.9-2,2-2.7,3.3c-0.7,1.4-0.9,2.5-0.7,3.4
										c0.3,1,1.1,1.4,2.5,1.4c1.4,0,2.7-0.3,3.8-0.7l2.3-4.5h-3.9l-0.8,1.6h2.3l-1,1.9c-0.6,0.2-1.1,0.3-1.6,0.3
										c-1.9,0-2.3-1.1-1.2-3.3c0.4-0.9,1-1.6,1.7-2.2c0.8-0.7,1.6-1.1,2.5-1.1c0.6,0,0.9,0.1,1.1,0.4c0.1,0.3,0.1,0.7-0.1,1.3
										h1.7c0.5-1,0.6-1.8,0.3-2.4C27.2,179.6,26.5,179.3,25.5,179.3"/>
									<path fill="#CB2935" d="M29.9,184.1l1.6-3.1h1.4c0.6,0,1,0.1,1.2,0.3c0.3,0.3,0.3,0.6,0,1.1c-0.3,0.6-0.7,1-1.2,1.2
										c-0.5,0.2-1,0.4-1.6,0.4H29.9 M33.1,179.5h-2.6l-4.7,9.2h1.7l1.6-3h1c2.8,0,4.7-1,5.8-3.1C36.9,180.5,36,179.5,33.1,179.5"
										/>
								</g>
							</g>
						</g>
					</g>
				</g>
			</g>
		</g>
	</g>
</g>
<g>
	<g>
		<path fill="#222B3F" d="M34.9,156H5.1c-1.4,0-2.5-1.1-2.5-2.5v-21.9c0-1.4,1.1-2.5,2.5-2.5h29.7c1.4,0,2.5,1.1,2.5,2.5v21.9
			C37.4,154.9,36.3,156,34.9,156z"/>
		<path fill="#222B3F" d="M34.9,157.5h-4.4c-0.1,0-0.2-0.1-0.2-0.2v-1.5c0-0.1,0.1-0.2,0.2-0.2H35c0.1,0,0.2,0.1,0.2,0.2v1.5
			C35.1,157.4,35,157.5,34.9,157.5z"/>
		<path fill="#222B3F" d="M9.9,157.5H5.4c-0.1,0-0.2-0.1-0.2-0.2v-1.5c0-0.1,0.1-0.2,0.2-0.2h4.4c0.1,0,0.2,0.1,0.2,0.2v1.5
			C10.1,157.4,10,157.5,9.9,157.5z"/>
		<g>
			<path fill="#222B3F" d="M24.7,124.6l-7,7c-0.5,0.5-1.3,0.5-1.8,0l0,0c-0.5-0.5-0.5-1.3,0-1.8l7-7c0.5-0.5,1.3-0.5,1.8,0l0,0
				C25.2,123.4,25.2,124.1,24.7,124.6z"/>
			<path fill="#222B3F" d="M15.9,131.4l-6.7-6.7c-0.5-0.5-0.5-1.3,0-1.8l0,0c0.5-0.5,1.3-0.5,1.8,0l6.7,6.7c0.5,0.5,0.5,1.3,0,1.8
				l0,0C17.2,131.8,16.4,131.8,15.9,131.4z"/>
		</g>
	</g>
	<g>
		<circle fill="#D74348" cx="33" cy="139" r="2.2"/>
		<circle fill="#CB2835" cx="33" cy="146" r="2.2"/>
	</g>
	<path fill="#F4F5F9" d="M27.2,152.2H6.8c-0.8,0-1.5-0.7-1.5-1.5v-16.2c0-0.8,0.7-1.5,1.5-1.5h20.4c0.8,0,1.5,0.7,1.5,1.5v16.2
		C28.7,151.6,28,152.2,27.2,152.2z"/>
</g>
<g>
	<circle fill="none" cx="30.5" cy="103.5" r="4.3"/>
	<line fill="none" x1="22.3" y1="92.1" x2="30" y2="105"/>
	<g>
		<circle fill="#222B3F" cx="30.5" cy="103.5" r="7"/>
		<ellipse fill="#F4F5F9" cx="30.5" cy="103.5" rx="4.4" ry="4.4"/>
	</g>
	<path fill="#DBDDE4" d="M18.7,92.1h3.6L30,105c0,0.1,0.5,0.7,1.2,0.3l0.8-0.5c0.1-0.1,0.6-0.5,0.3-1.2l-8.1-13.4
		c-0.4-0.6-1.1-0.6-1.1-0.6h-4.4c-0.5,0-0.9,0.5-0.9,0.9v0.9C17.8,91.6,18.1,92.1,18.7,92.1z"/>
	<circle fill="none" cx="9.5" cy="103.5" r="4.3"/>
	<g>
		<circle fill="#222B3F" cx="9.5" cy="103.5" r="7"/>
		<ellipse fill="#F4F5F9" cx="9.5" cy="103.5" rx="4.4" ry="4.4"/>
	</g>
	<path fill="#D74348" d="M6.5,94.3c-0.8,0-1.3-0.6-1.3-1.3c0-0.8,0.6-1.3,1.3-1.3h3.1c0,0,3.7-0.2,5.4,2.2h8.4l1.9,3.2
		c0,0-3.2,2.2-3.1,6.8c0,0.4-0.3,1.4-1.3,1.4H9c-1.1,0-1.5-1.2-1.1-1.9l4.2-7.6c0,0-0.8-1.4-2.6-1.4H6.5"/>
	<path fill="#CB2835" d="M27.5,89.9c0,0,0.4-0.4,1-0.4h2.5c0.3,0,1.3,0.1,1.3,1.3v1.8c0,0.4-0.4,1.3-1.3,1.3h-4.5l-1-1.7L27.5,89.9z
		"/>
</g>
</svg>
