<?xml version="1.0" encoding="utf-8"?>
<!-- Generator: Adobe Illustrator 18.1.1, SVG Export Plug-In . SVG Version: 6.00 Build 0)  -->
<svg version="1.1" id="图层_1" xmlns="http://www.w3.org/2000/svg" xmlns:xlink="http://www.w3.org/1999/xlink" x="0px" y="0px"
	 viewBox="0 0 65 65" enable-background="new 0 0 65 65" xml:space="preserve">
<circle fill="#2A2F3A" cx="32.5" cy="32.5" r="25"/>
<path fill="#FFFFFF" d="M32.5,25.2c-4.1,0-7.3,3.3-7.3,7.3s3.3,7.3,7.3,7.3s7.3-3.3,7.3-7.3S36.5,25.2,32.5,25.2z M32.5,37.2
	c-2.6,0-4.7-2.1-4.7-4.7s2.1-4.7,4.7-4.7s4.7,2.1,4.7,4.7S35.1,37.2,32.5,37.2z M41.8,24.9c0,1-0.7,1.7-1.7,1.7s-1.7-0.7-1.7-1.7
	s0.7-1.7,1.7-1.7S41.8,23.9,41.8,24.9z M46.7,26.6c-0.1-2.3-0.6-4.3-2.3-6c-1.7-1.7-3.7-2.2-6-2.3c-2.3-0.1-9.4-0.1-11.8,0
	c-2.3,0.1-4.3,0.6-6,2.3c-1.7,1.7-2.2,3.7-2.3,6c-0.1,2.3-0.1,9.4,0,11.8c0.1,2.3,0.6,4.3,2.3,6s3.7,2.2,6,2.3
	c2.3,0.1,9.4,0.1,11.8,0c2.3-0.1,4.3-0.6,6-2.3s2.2-3.7,2.3-6C46.8,36,46.8,29,46.7,26.6z M43.6,40.9c-0.5,1.3-1.5,2.2-2.7,2.7
	c-1.9,0.7-6.4,0.6-8.4,0.6c-2.1,0-6.6,0.2-8.4-0.6c-1.3-0.5-2.2-1.5-2.7-2.7c-0.7-1.9-0.6-6.4-0.6-8.4s-0.2-6.6,0.6-8.4
	c0.5-1.3,1.5-2.2,2.7-2.7c1.9-0.7,6.4-0.6,8.4-0.6s6.6-0.2,8.4,0.6c1.3,0.5,2.2,1.5,2.7,2.7c0.7,1.9,0.6,6.4,0.6,8.4
	S44.4,39.1,43.6,40.9z"/>
</svg>
