<?xml version="1.0" encoding="utf-8"?>
<!-- Generator: Adobe Illustrator 18.1.1, SVG Export Plug-In . SVG Version: 6.00 Build 0)  -->
<svg version="1.1" id="图层_1" xmlns="http://www.w3.org/2000/svg" xmlns:xlink="http://www.w3.org/1999/xlink" x="0px" y="0px"
	 viewBox="0 0 200 80" enable-background="new 0 0 200 80" xml:space="preserve">
<g>
	<g>
		<polygon fill="#C7C6CC" points="33.5,12.5 13.5,32.5 10.5,29.5 7.5,26.5 27.5,6.5 30.5,9.5 		"/>
		<polygon fill="#ACACB1" points="30.5,9.5 33.5,12.5 13.5,32.5 10.5,29.5 		"/>
		<path fill="#57555C" d="M9.2,30.8L9.2,30.8c-0.8-0.7-1.7-1.1-2.8-1.1c-1,0-2,0.4-2.8,1.1c-0.7,0.7-1.1,1.7-1.1,2.8
			c0,1,0.4,2,1.1,2.7l0,0c0.7,0.7,1.7,1.1,2.8,1.1c0.5,0,1-0.1,1.5-0.3s0.9-0.5,1.3-0.8c0.7-0.7,1.1-1.7,1.1-2.8
			C10.3,32.6,9.9,31.6,9.2,30.8z M8.1,34.3c-0.1,0.2-0.2,0.4-0.4,0.6c-0.3,0.3-0.8,0.6-1.3,0.6c-0.5,0-0.9-0.2-1.3-0.6l0,0
			c-0.3-0.3-0.5-0.8-0.5-1.3c0-0.5,0.2-0.9,0.6-1.3C5.6,32,6,31.8,6.5,31.8c0.5,0,0.9,0.2,1.3,0.5l0,0c0.3,0.3,0.6,0.8,0.6,1.3
			C8.2,33.9,8.2,34.1,8.1,34.3z"/>
		<path fill="#57555C" d="M36.4,3.7C36.4,3.7,36.3,3.7,36.4,3.7c-0.6-0.6-1.4-1-2.3-1s-1.7,0.3-2.2,0.9c-1.2,1.2-1.2,3.3,0,4.5l0,0
			c0.6,0.6,1.4,0.9,2.2,0.9c0.4,0,0.8-0.1,1.2-0.3c0.4-0.2,0.8-0.4,1.1-0.7C37.5,6.9,37.6,5,36.4,3.7z M34.9,6.7
			c-0.4,0.4-1.1,0.5-1.6,0l0,0c-0.5-0.5-0.5-1.2,0-1.6c0.2-0.2,0.5-0.3,0.8-0.3c0.3,0,0.6,0.1,0.8,0.3l0,0c0.2,0.2,0.3,0.5,0.3,0.8
			C35.2,6.2,35.1,6.5,34.9,6.7z"/>
		<polygon fill="#D74348" points="18.6,30.5 16.8,31.5 13.7,26.3 10.4,20.6 12.2,19.5 15.3,24.7 		"/>
		<polygon fill="#D74348" points="21.6,27.5 19.8,28.5 16.7,23.3 13.4,17.5 15.2,16.5 18.2,21.8 		"/>
		<polygon fill="#D74348" points="24.5,24.5 22.8,25.6 19.7,20.3 16.4,14.6 18.1,13.5 21.2,18.8 		"/>
		<polygon fill="#D74348" points="27.5,21.5 25.8,22.5 22.7,17.3 19.4,11.6 21.1,10.6 24.2,15.8 		"/>
		<polygon fill="#D74348" points="30.5,18.5 28.7,19.6 25.7,14.3 22.3,8.6 24.1,7.6 27.2,12.8 		"/>
		<polygon fill="#78777F" points="16.1,32.3 11.9,36.6 3.4,28.1 7.7,23.9 		"/>
		<polygon fill="#78777F" points="37.5,11 33.3,15.2 24.8,6.7 29,2.5 		"/>
		<path fill="#3B3A41" d="M10.3,33.6c0,1-0.4,2-1.1,2.8c-0.4,0.4-0.8,0.6-1.3,0.8s-1,0.3-1.5,0.3c-1,0-2-0.4-2.8-1.1l0,0l1.4-1.4
			l0,0c0.3,0.3,0.8,0.6,1.3,0.6c0.5,0,0.9-0.2,1.3-0.6c0.2-0.2,0.3-0.4,0.4-0.6c0.1-0.2,0.1-0.5,0.1-0.7c0-0.5-0.2-0.9-0.6-1.3l0,0
			L9,30.9l0,0C9.9,31.6,10.3,32.6,10.3,33.6z"/>
		<path fill="#3B3A41" d="M36.3,8.2c-0.3,0.3-0.7,0.6-1.1,0.7c-0.4,0.2-0.8,0.3-1.2,0.3c-0.8,0-1.6-0.3-2.2-0.9l1.4-1.4
			c0.5,0.4,1.1,0.4,1.6,0c0.2-0.2,0.3-0.5,0.3-0.8c0-0.3-0.1-0.6-0.3-0.8l1.4-1.4C37.6,5,37.5,6.9,36.3,8.2z"/>
		<polygon fill="#57555C" points="11.9,28.1 16.1,32.3 11.9,36.6 7.7,32.3 		"/>
		<polygon fill="#CB1F25" points="15.3,24.7 18.6,30.5 16.8,31.5 13.7,26.3 		"/>
		<polygon fill="#CB1F25" points="18.2,21.8 21.6,27.5 19.8,28.5 16.7,23.3 		"/>
		<polygon fill="#CB1F25" points="21.2,18.8 24.5,24.5 22.8,25.6 19.7,20.3 		"/>
		<polygon fill="#CB1F25" points="24.2,15.8 27.5,21.5 25.8,22.5 22.7,17.3 		"/>
		<polygon fill="#CB1F25" points="27.2,12.8 30.5,18.5 28.7,19.6 25.7,14.3 		"/>
		<polygon fill="#57555C" points="37.5,11 33.3,15.2 29,11 33.3,6.8 		"/>
	</g>
</g>
<g>
	<g>
		<path fill="#222B3F" d="M72.4,32.3c-2.8,0-5.1-2.3-5.1-5.1s2.3-5.1,5.1-5.1c2.8,0,5.1,2.3,5.1,5.1S75.2,32.3,72.4,32.3z
			 M72.4,24.1c-1.7,0-3.1,1.4-3.1,3.1s1.4,3.1,3.1,3.1c1.7,0,3.1-1.4,3.1-3.1S74.1,24.1,72.4,24.1z"/>
		<path fill="#DBDDE4" d="M71.6,27.8l-5.2-6.4c-0.4-0.5-0.3-1.1,0.2-1.4c0.5-0.4,1.1-0.3,1.4,0.2l5.2,6.4c0.4,0.5,0.3,1.1-0.2,1.4
			C72.6,28.3,71.9,28.3,71.6,27.8z"/>
		<path fill="#222B3F" d="M66.1,14.7c-1.4-2.1-3.6-3.3-6.1-3.3c-2.8,0-5.4,1.7-6.5,4.2c-0.4,0.9,0.4,1.3,1.1,1.8
			c1.7,1,3.5,1.7,5.4,2c0.9,0.2,1.8,0.2,2.7,0.2c0.4,0,0.7-0.2,0.9-0.5l1.6-2.3c0.2-0.3,0.4-0.5,0.7-0.8
			C66.2,15.7,66.4,15.2,66.1,14.7z"/>
		<path fill="#222B3F" d="M48.7,32.3c-3.4,0-6.1-2.7-6.1-6.1s2.7-6.1,6.1-6.1c3.4,0,6.1,2.7,6.1,6.1S52.1,32.3,48.7,32.3z M48.7,22
			c-2.3,0-4.1,1.8-4.1,4.1s1.8,4.1,4.1,4.1c2.3,0,4.1-1.8,4.1-4.1S50.9,22,48.7,22z"/>
		<path fill="#DBDDE4" d="M58.1,26.2c-0.1,0-0.1,0-0.2,0h-8.2c-0.6,0-1-0.5-1-1c0-0.6-0.5-1-1-1c-0.6,0-1,0.5-1,1
			c0,1.7,1.4,3.1,3.1,3.1h7L58.1,26.2z"/>
		<path fill="#CB2835" d="M63.6,17.5l-1.4,2C62,19.8,61.7,20,61.4,20c-0.5,0-0.9,0.1-1.4,0.2c-0.8,0.3-1.5,0.8-2,1.4l-2.4-0.1l0,0.1
			c-1.4-2-3.5-3.4-5.9-3.6c-0.1,0-0.2,0-0.2,0h-1.8c-2.8,0-5.1-2.3-5.1-5.1c0-0.6,0.5-1,1-1h8.3c0.2,0,0.4,0,0.5,0.2l3.4,2
			c1.4,0.8,2.8,1.4,4.3,1.7c0.9,0.2,1.8,0.3,2.7,0.3c0.4,0,0.7,0.2,0.9,0.5C63.8,16.8,63.8,17.2,63.6,17.5z"/>
		<path fill="#222B3F" d="M67.2,7.8L67.2,7.8c-0.3,0-0.6,0-0.9,0h-1.2c-0.6,0-1,0.5-1,1s0.5,1,1,1h1.2c0.5,0,1,0.1,1.5,0.2
			C67.6,9.2,67.2,7.8,67.2,7.8z"/>
		<path fill="#141B2D" d="M65.8,16.1c-0.3,0.2-0.6,0.5-0.7,0.8l-1.6,2.3c-0.2,0.3-0.5,0.5-0.9,0.5c-0.9,0-1.8-0.1-2.7-0.2v-7.9
			c2.5,0,4.7,1.3,6.1,3.3C66.4,15.2,66.2,15.7,65.8,16.1z"/>
		<path fill="#B2202C" d="M63.6,17.5l-1.4,2C62,19.8,61.7,20,61.4,20c-0.5,0-0.9,0.1-1.4,0.2v-4.6c0.9,0.2,1.8,0.3,2.7,0.3
			c0.4,0,0.7,0.2,0.9,0.5C63.8,16.8,63.8,17.2,63.6,17.5z"/>
		<path fill="#D74348" d="M67.2,7.8v4.1c-0.9,0.1-1.8,0.4-2.6,1c-1.1,0.8-2.9,3.9-3.8,5.2c-0.3,0-0.5,0-0.8,0.1
			c-1.9,0.4-3.6,1.7-4.5,3.5l0.3,0.5c0.7,1.2,1.1,2.7,1.1,4.1c0,0.3,0,0.6-0.1,0.9l-0.1,1.1h7.4c0.6,0,1-0.5,1-1
			c0-0.5,0.1-1.1,0.2-1.8c0.6-2.5,2.8-4.7,5.3-5.2c0.6-0.1,1.2-0.2,1.8-0.2c1.8,0,3-1.5,3-3.1v-0.1C75.4,12.1,71.8,8.2,67.2,7.8z"/>
		<path fill="#BB383D" d="M75.4,16.8v0.1c0,1.6-1.2,3.1-3,3.1c-0.6,0-1.1,0-1.8,0.2c-2.5,0.6-4.7,2.7-5.3,5.2
			c-0.1,0.7-0.2,1.2-0.2,1.8c0,0.6-0.5,1-1,1H60V18.1c0.2-0.1,0.5-0.1,0.8-0.1c0.8-1.2,2.7-4.3,3.8-5.2c0.8-0.6,1.7-0.9,2.6-1V7.7
			C71.8,8.2,75.4,12.1,75.4,16.8z"/>
	</g>
</g>
<g>
	<path fill="#495260" d="M2.6,56.9c0.5-3.5,3.4-6.2,7.1-6.2c0.5,0,1,0.5,1,1v12.4v5.2h-2v-5.2c0-2.9-2.4-5.2-5.1-5.2l-1.1-1
		C2.5,57.6,2.6,57.3,2.6,56.9z"/>
	<path fill="#222B3F" d="M37.4,56.9c-0.5-3.5-3.4-6.2-7.1-6.2c-0.5,0-1,0.5-1,1v12.4v5.2h2v-5.2c0-2.9,2.4-5.2,5.1-5.2l1-1
		C37.5,57.6,37.4,57.3,37.4,56.9z"/>
	<path fill="#D74348" d="M2.6,56.9c0.3,0,0.6-0.1,0.9-0.1c3.9,0,7.2,3.2,7.2,7.2v5.2l-1.1,2H3.5l-1-2.1V59v-1.1
		C2.5,57.6,2.6,57.3,2.6,56.9z"/>
	<path fill="#CB2835" d="M37.4,56.9c-0.3,0-0.6-0.1-0.9-0.1c-3.9,0-7.2,3.2-7.2,7.2v5.2l1,2h6.1l1-2.1V59v-1.1
		C37.5,57.6,37.4,57.3,37.4,56.9z"/>
	<path fill="#495260" d="M2.5,74.4v-5.1h8.2v5.1c0,0.5-0.5,1-1,1H3.5C3,75.4,2.5,75,2.5,74.4z"/>
	<path fill="#222B3F" d="M36.5,75.4h-6.1c-0.5,0-1-0.5-1-1v-5.1h8.2v5.1C37.5,75,37,75.4,36.5,75.4z"/>
	<path fill="#495260" d="M31.3,50.8v25.7c0,0.6-0.5,1-1,1H9.7c-0.6,0-1-0.5-1-1V50.8l4.1-2.1h14.3L31.3,50.8z"/>
	<path fill="#222B3F" d="M31.3,50.8v25.7c0,0.6-0.5,1-1,1H20V48.7h7.2L31.3,50.8z"/>
	<path fill="#CB2835" d="M26.2,58.9h-2c-0.5,0-1-0.5-1-1s0.5-1,1-1h2c0.5,0,1,0.5,1,1C27.2,58.5,26.7,58.9,26.2,58.9z"/>
	<path fill="#495260" d="M26.8,44.8l-6.7,6l-6.8-6c0.1-0.1,3.1-2.3,6.8-2.3S26.6,44.7,26.8,44.8z"/>
	<path fill="#222B3F" d="M26.8,44.8l-6.7,6v-8.2C23.7,42.5,26.6,44.7,26.8,44.8z"/>
	<path fill="#B8C0CB" d="M25.7,44.7l-3.5,1.7c-0.6,0.3-1.1,0.8-1.4,1.4L20,49.4l-0.8-1.6c-0.3-0.6-0.8-1.1-1.4-1.4l-3.5-1.7
		c-0.3-0.1-0.7-0.1-1,0.1c-0.3,0.2-0.5,0.5-0.5,0.9v4.1c0,0.5,0.3,0.8,0.7,1l6.1,2c0.1,0,0.2,0.1,0.3,0.1s0.2,0,0.3-0.1l6.1-2
		c0.4-0.1,0.7-0.5,0.7-1v-4.1C27.2,44.8,26.4,44.3,25.7,44.7z"/>
	<path fill="#ABB1C0" d="M27.2,45.6v4.1c0,0.5-0.3,0.8-0.7,1l-6.1,2c-0.1,0-0.2,0.1-0.3,0.1v-3.3l0.8-1.6c0.3-0.6,0.8-1.1,1.4-1.4
		l3.5-1.7C26.4,44.3,27.2,44.8,27.2,45.6z"/>
</g>
<g>
	<path fill="#575F64" d="M94.9,49.9h2v4.9h-2V49.9z"/>
	<path fill="#575F64" d="M101.6,53.1l-1.3,1.6L99,53.7l-7.9-6.3l1.3-1.6l6.6,5.2L101.6,53.1z"/>
	<path fill="#DBDDE4" d="M114.5,57.9c-1.7,0-3.1-1.4-3.1-3.1c0-0.5,0.1-1.1,0.4-1.6l0,0l2.7-4.6l2.7,4.6c0.3,0.5,0.4,1,0.4,1.6
		C117.6,56.6,116.2,57.9,114.5,57.9z"/>
	<g>
		<path fill="#7C8387" d="M106.5,68.2L106.5,68.2L106.5,68.2L106.5,68.2z"/>
		<path fill="#7C8387" d="M91.5,68.2L91.5,68.2L91.5,68.2L91.5,68.2z"/>
		<path fill="#7C8387" d="M106.5,68.2l-2.4,2.1h-8.9l-3.6-2l1.3-8.2l5-2h5.2l1.8,2L106.5,68.2z"/>
	</g>
	<path fill="#575F64" d="M94.9,58.2l-2-0.3h-1.1c-1.7,0-3.1,1.4-3.1,3.1v3.1c0,1.2-0.9,2-2,2c-1.2,0-2-0.9-2-2V61
		c0-2.8,2.3-5.1,5.1-5.1h3.1l2,0.1v-0.4l-2-1.7h-3.1c-4,0-7.2,3.2-7.2,7.2v3.1c0,2.3,1.9,4.1,4.1,4.1c2.3,0,4.1-1.9,4.1-4.1V61
		c0-0.6,0.4-1,1-1h1.1l2-1.2L94.9,58.2L94.9,58.2z"/>
	<path fill="#CB2835" d="M112,45.6l-1.7,2h5.2v-2H112z"/>
	<path fill="#32393F" d="M100.3,54.7L99,53.7v-2.6l2.6,2.1L100.3,54.7z"/>
	<path fill="#575F64" d="M106.5,68.2l-2.4,2.1H99V57.9h4l1.8,2L106.5,68.2z"/>
	<path fill="#D74348" d="M105.7,45.6l-6.2,8.2h-6.7V60h12l7.2-14.4H105.7z"/>
	<path fill="#CB2835" d="M104.8,60H99v-6.2h0.5l6.2-8.2h6.3L104.8,60z"/>
	<path fill="#D74348" d="M106.5,68.2h-15l-0.9,6.2h16.8L106.5,68.2z"/>
	<path fill="#CB2835" d="M106.5,68.2l0.9,6.2H99v-6.2H106.5z"/>
</g>
<g>
	<circle fill="#29303B" cx="180" cy="60" r="17.5"/>
	<g>
		<path fill="#FFFFFF" d="M185.8,47.3c0.4,0,0.5,0.2,0.5,0.5c0,0.4-0.2,0.5-0.5,0.5h-4.9v3.5h4.1c0.4,0,0.5,0.2,0.5,0.5
			c0,0.4-0.2,0.5-0.5,0.5h-4.1v4.5h5.1c0.4,0,0.5,0.2,0.5,0.5c0,0.4-0.2,0.5-0.5,0.5h-11.8c-0.4,0-0.5-0.2-0.5-0.5
			c0-0.4,0.2-0.5,0.5-0.5h1.1v-6.1c0-0.4,0.2-0.6,0.6-0.6c0.4,0,0.6,0.2,0.6,0.6v6.1h3.2v-9h-5.3c-0.4,0-0.5-0.2-0.5-0.5
			c0-0.4,0.2-0.5,0.5-0.5H185.8z"/>
		<path fill="#FFFFFF" d="M174.9,66.3h3.5c0.6,0,1,0.3,1,0.9v4.5c0,0.7-0.3,1-1,1h-3.5c-0.6,0-1-0.3-1-1v-4.5
			C173.9,66.6,174.2,66.3,174.9,66.3z M177.9,71.6c0.3,0,0.4-0.2,0.4-0.5v-3.4c0-0.3-0.1-0.4-0.4-0.4h-2.5c-0.3,0-0.4,0.1-0.4,0.4
			v3.4c0,0.3,0.1,0.5,0.4,0.5H177.9z M176.5,60.7h7.1c0.7,0,1.1,0.3,1.1,1v2.7c0,0.7-0.4,1.1-1.1,1.1h-7.1c-0.7,0-1.1-0.4-1.1-1.1
			v-2.7C175.4,61,175.7,60.7,176.5,60.7z M183,64.4c0.4,0,0.5-0.2,0.5-0.6v-1.6c0-0.4-0.2-0.5-0.5-0.5h-6c-0.4,0-0.5,0.2-0.5,0.5
			v1.6c0,0.4,0.2,0.6,0.5,0.6H183z M181.6,66.3h3.5c0.6,0,1,0.3,1,0.9v4.5c0,0.7-0.3,1-1,1h-3.5c-0.6,0-1-0.3-1-1v-4.5
			C180.6,66.6,181,66.3,181.6,66.3z M184.6,71.6c0.3,0,0.4-0.2,0.4-0.5v-3.4c0-0.3-0.1-0.4-0.4-0.4h-2.5c-0.3,0-0.4,0.1-0.4,0.4v3.4
			c0,0.3,0.1,0.5,0.4,0.5H184.6z"/>
	</g>
</g>
<g>
	<path fill="#CB2835" d="M44.7,61.1h30.6c1.2,0,2.2,1,2.2,2.2v9.8c0,1.2-1,2.2-2.2,2.2H44.7c-1.2,0-2.2-1-2.2-2.2v-9.8
		C42.5,62.1,43.5,61.1,44.7,61.1z"/>
	<path fill="#222B3F" d="M60,44.7c1.8,0,3.3,1,3.3,2.2h2.2c0-2.4-2.4-4.4-5.5-4.4s-5.5,2-5.5,4.4h2.2C56.7,45.7,58.2,44.7,60,44.7z"
		/>
	<path fill="#D74348" d="M52.3,46.9h15.3c3.6,0,6.6,2.9,6.6,6.6v21.9c0,1.2-1,2.2-2.2,2.2H48c-1.2,0-2.2-1-2.2-2.2V53.5
		C45.7,49.8,48.7,46.9,52.3,46.9z"/>
	<path fill="#CB2835" d="M49,46.9h21.9c2.4,0,4.4,1.9,4.4,4.4v4.4c0,2.4-1.9,4.4-4.4,4.4H49c-2.4,0-4.4-2-4.4-4.4v-4.4
		C44.7,48.9,46.6,46.9,49,46.9z"/>
	<g>
		<g>
			<path fill="#222B3F" d="M51.2,69.9c0,0,0.8,2.2,1.7,2.2c0.8,0,1.6-2.2,1.6-2.2v-23h-3.3V69.9z M65.5,46.9v23c0,0,0.8,2.2,1.7,2.2
				c0.8,0,1.6-2.2,1.6-2.2v-23H65.5z"/>
		</g>
	</g>
	<g>
		<g>
			<path fill="#F4F5F9" d="M50.1,67.7h5.5v-3.3h-5.5V67.7z M64.4,64.4v3.3h5.5v-3.3L64.4,64.4z"/>
		</g>
	</g>
</g>
<g>
	<path fill="#D74348" d="M197.3,17.1l-2.3,15.7c-0.1,0.3-0.3,0.6-0.4,0.9c-0.9,2.3-3.1,3.7-5.6,3.7c-0.8,0-1.5-0.1-2.2-0.4l-6.9-2.9
		l-15.6-6.5c-1.1-0.5-1.8-1.6-1.8-2.8V20c0-7.3,5.6-14.9,12.4-16.8c1.7-0.4,3.4-0.7,5.1-0.7c3.5,0,7,1.1,9.9,3
		C193.9,8.3,196.6,12.5,197.3,17.1z"/>
	<path fill="#CB2835" d="M197.3,17.1l-2.3,15.7c-0.1,0.3-0.3,0.6-0.4,0.9c-0.9,2.3-3.1,3.7-5.6,3.7c-0.8,0-1.5-0.1-2.2-0.4l-6.9-2.9
		V2.5c3.5,0,7,1.1,9.9,3C193.9,8.3,196.6,12.5,197.3,17.1z"/>
	<path fill="#222B3F" d="M170.8,25.2c-2.2,0-4.1-1.8-4.1-4.1s1.8-4.1,4.1-4.1c2.2,0,4.1,1.8,4.1,4.1S173,25.2,170.8,25.2z"/>
	<path fill="#222B3F" d="M197.3,17.1l-12.2-1.5l-2.1,1.8v7.4l2.1,3.1l9.9,4.9l0.9,0.5c0.1,0,0.3,0.1,0.4,0.1c0.2,0,0.4,0,0.5-0.1
		c0.3-0.2,0.5-0.5,0.5-0.9V17.9C197.4,17.6,197.4,17.4,197.3,17.1z"/>
	<path fill="#495260" d="M185.2,15.6v12.3l-4.4-2.2c-0.3-0.1-0.5-0.3-0.7-0.4c-0.6-0.6-1-1.4-1-2.3v-4.6c0-0.9,0.4-1.7,1-2.3l0,0
		c0.7-0.6,1.5-0.9,2.4-0.7L185.2,15.6z"/>
	<path fill="#222B3F" d="M185.2,15.6v12.3l-4.4-2.2c-0.3-0.1-0.5-0.3-0.7-0.4V16l0,0c0.7-0.6,1.5-0.9,2.4-0.7L185.2,15.6z"/>
</g>
<g>
	<g>
		
			<rect x="90.5" y="27.8" transform="matrix(-0.7071 0.7071 -0.7071 -0.7071 178.9602 -15.6205)" fill="#495260" width="4.5" height="2.9"/>
		
			<rect x="90.8" y="27.6" transform="matrix(-0.7071 0.7071 -0.7071 -0.7071 179.2289 -16.2413)" fill="#3C4551" width="4.3" height="2.9"/>
		<path fill="#CFCFD6" d="M102.9,12.4L92.7,22.7c-1.6,1.6-2,3.9-0.9,5.1L92,28l2,2l3.2,3.2c1.2,1.2,3.4,0.8,5.1-0.9l7.8-7.9l5.4-5.4
			l-9.6-9.6L102.9,12.4z"/>
		<path fill="#BFBFC6" d="M109.7,24.8l3.6-3.6c0.6-0.6,0.1-2-1.1-3.2l-0.2-0.2l-2-2l-3.2-3.2c-1.2-1.2-2.6-1.6-3.2-1.1l-2.8,2.8
			L99,16.2l9.6,9.6L109.7,24.8z"/>
		<path fill="#495260" d="M107.1,8.2l-1.2,1.2l-1.2,1.2c-1.1,1.1-1.1,2.9,0.1,4.1l5.4,5.4c1.2,1.2,3,1.2,4.1,0.1l1.2-1.2l1.2-1.2
			c1.1-1.1,1.1-2.9-0.1-4.1l-2.3-2.3l0,0l-2.6-2.6l-0.1-0.1l-0.3-0.3C110.1,7.1,108.2,7.1,107.1,8.2z"/>
		<path fill="#CFCFD6" d="M111.6,13l4.2-4.1c0.3-0.3,0.3-0.9,0-1.3l-1.2-1.2c-0.3-0.3-0.9-0.3-1.3,0l-4.2,4.1
			c-0.3,0.3-0.3,0.9,0,1.3l1.2,1.2C110.7,13.3,111.2,13.3,111.6,13z"/>
		<path fill="#BFBFC6" d="M113.9,10.7l1.6-1.6c0.3-0.3,0.2-0.7-0.1-1l0,0l-0.5-0.5L114,6.8c-0.3-0.3-0.7-0.3-1-0.1l-1.2,1.2L111,8.8
			l2.4,2.4L113.9,10.7z"/>
		<path fill="#495260" d="M114.7,6.6l0.8,0.8c0.4,0.4,0.4,1.2-0.1,1.7c0,0,0,0-0.1,0.1c-0.5,0.4-1.2,0.4-1.6,0L113,8.3
			c-0.4-0.4-0.4-1.2,0-1.6c0,0,0,0,0.1-0.1c0.2-0.2,0.6-0.4,0.9-0.4C114.2,6.2,114.5,6.3,114.7,6.6z"/>
		<rect x="82.5" y="29.7" fill="#495260" width="7.9" height="2.9"/>
		<path fill="#495260" d="M90.2,29.7l2,2c-0.9,0.9-2,0.9-2,0.9V29.7z"/>
	</g>
</g>
<g>
	<path fill="#BCBCBB" d="M155.5,21.3l2-0.3c0-0.3,0-0.7,0-1s0-0.7,0-1l-2-0.3c-0.6-0.1-1.1-0.6-1.2-1.2c-0.1-0.6,0.2-1.2,0.7-1.5
		l1.7-1c-0.2-0.7-0.4-1.3-0.7-1.9l-2,0.3c-0.6,0.1-1.2-0.2-1.5-0.7c-0.3-0.5-0.2-1.2,0.2-1.7l1.3-1.5c-0.4-0.5-0.8-1-1.3-1.5l-1.7,1
		c-0.5,0.3-1.2,0.2-1.7-0.1c-0.5-0.4-0.7-1-0.4-1.7l0.7-1.9c-0.6-0.3-1.2-0.7-1.7-1l-1.3,1.5c-0.4,0.5-1,0.7-1.6,0.5
		c-0.6-0.2-1-0.7-1-1.4v-2c-0.7-0.2-1.3-0.3-2-0.3l-0.7,1.9c-0.2,0.6-0.7,1-1.4,1c-0.7,0-1.2-0.4-1.4-1L138,2.5
		c-0.7,0-1.3,0.2-2,0.3v2c0,0.7-0.4,1.2-1,1.4c-0.6,0.2-1.2,0-1.6-0.5l-1.3-1.5c-0.6,0.3-1.2,0.7-1.7,1l0.7,1.9
		c0.2,0.6,0,1.2-0.4,1.7c-0.5,0.4-1.2,0.5-1.7,0.1l-1.7-1c-0.5,0.5-0.9,1-1.3,1.5l1.3,1.5c0.4,0.5,0.5,1.1,0.2,1.7
		c-0.3,0.5-1,0.8-1.5,0.7l-2-0.3c-0.3,0.6-0.5,1.2-0.7,1.9l1.7,1c0.5,0.3,0.8,1,0.7,1.5s-0.6,1-1.2,1.2l-2,0.3c0,0.3,0,0.7,0,1
		s0,0.7,0,1l2,0.3c0.6,0.1,1.1,0.6,1.2,1.2c0.1,0.6-0.2,1.2-0.7,1.5l-1.7,1c0.2,0.7,0.4,1.3,0.7,1.9l2-0.3c0.6-0.1,1.2,0.2,1.5,0.7
		s0.2,1.2-0.2,1.7l-1.3,1.5c0.4,0.5,0.8,1,1.3,1.5l1.7-1c0.5-0.3,1.2-0.2,1.7,0.1c0.5,0.4,0.7,1,0.4,1.7l-0.7,1.9
		c0.6,0.3,1.1,0.7,1.7,1l1.3-1.5c0.4-0.5,1-0.7,1.6-0.5c0.6,0.2,1,0.7,1,1.4v2c0.7,0.2,1.3,0.3,2,0.3l0.7-1.9c0.2-0.6,0.7-1,1.3-1
		c0.7,0,1.2,0.4,1.4,1l0.7,1.9c0.7,0,1.3-0.2,2-0.3v-2c0-0.7,0.4-1.2,1-1.4c0.6-0.2,1.2,0,1.6,0.5l1.3,1.5c0.6-0.3,1.2-0.7,1.7-1
		l-0.7-1.9c-0.2-0.6,0-1.2,0.4-1.7c0.5-0.4,1.2-0.5,1.7-0.1l1.7,1c0.5-0.5,0.9-1,1.3-1.5l-1.3-1.5c-0.4-0.5-0.5-1.2-0.2-1.7
		c0.3-0.5,1-0.8,1.5-0.7l2,0.3c0.3-0.6,0.5-1.2,0.7-1.9l-1.7-1c-0.5-0.3-0.8-1-0.7-1.5C154.4,21.9,154.9,21.4,155.5,21.3z M140,25.8
		c-3.2,0-5.8-2.7-5.8-5.8s2.6-5.9,5.8-5.9c3.2,0,5.8,2.7,5.8,5.8S143.2,25.8,140,25.8z"/>
	<g>
		<path fill="#787D82" d="M138.5,8.3h2.9c0.8,0,1.5,0.7,1.5,1.5s-0.7,1.5-1.5,1.5h-2.9c-0.8,0-1.5-0.7-1.5-1.5
			C137,9,137.7,8.3,138.5,8.3z"/>
		<path fill="#787D82" d="M129.1,15.5l1.5-2.5c0.4-0.7,1.3-1,2-0.5c0.7,0.4,1,1.3,0.5,2l-1.5,2.5c-0.4,0.7-1.3,1-2,0.5
			C129,17,128.7,16.2,129.1,15.5z"/>
		<path fill="#787D82" d="M130.6,27.2l-1.5-2.5c-0.4-0.7-0.2-1.6,0.5-2c0.7-0.4,1.6-0.2,2,0.5l1.5,2.5c0.4,0.7,0.2,1.6-0.5,2
			C131.9,28.1,131,27.8,130.6,27.2z"/>
		<path fill="#787D82" d="M141.4,31.8h-2.9c-0.8,0-1.5-0.7-1.5-1.5s0.7-1.5,1.5-1.5h2.9c0.8,0,1.5,0.7,1.5,1.5
			S142.2,31.8,141.4,31.8z"/>
		<path fill="#787D82" d="M150.7,24.6l-1.5,2.5c-0.4,0.7-1.3,1-2,0.5c-0.7-0.4-1-1.3-0.5-2l1.5-2.5c0.4-0.7,1.3-1,2-0.5
			C150.9,23,151.2,23.9,150.7,24.6z"/>
		<path fill="#787D82" d="M149.3,12.9l1.5,2.5c0.4,0.7,0.2,1.6-0.5,2c-0.7,0.4-1.6,0.2-2-0.5l-1.5-2.5c-0.4-0.7-0.2-1.6,0.5-2
			C148,12,148.9,12.2,149.3,12.9z"/>
	</g>
</g>
<g>
	<path fill="#A0A7AD" d="M153.4,42.6v7l-3.9,2.8l-3.9-2.7v-7c-2.4,1.4-4.1,4-4.1,7c0,1.2,0.3,2.3,0.8,3.4l-18.8,18.8
		c-1.2,1.2-1.2,3.2,0,4.4c1.2,1.2,3.2,1.2,4.4,0l19-19.1c0,0,1.7,0.5,2.6,0.5c4.4,0,8-3.6,8-8C157.5,46.7,155.9,44,153.4,42.6z"/>
	<circle fill="#FFFFFF" cx="125.6" cy="74" r="0.8"/>
	<polygon fill="#222B3F" points="149.6,68.4 139.1,58 137.6,59.5 148.1,70 149,72.5 153.8,77.4 157,74.2 152.1,69.4 	"/>
	<path fill="#D74348" d="M137.1,62.3l-13.5-13.6c-1.3-1.3-1.3-3.4,0-4.7c1.3-1.3,3.4-1.3,4.7,0l13.6,13.6L137.1,62.3z"/>
	<g>
		<path fill="#CB2835" d="M138,58.4c-0.3,0.3-0.9,0.3-1.2,0L125.4,47c-0.3-0.3-0.3-0.9,0-1.2c0.3-0.3,0.9-0.3,1.2,0L138,57.2
			C138.3,57.5,138.3,58.1,138,58.4z"/>
		<path fill="#CB2835" d="M142.8,57.7l-5.5,5.5c-0.3,0.3-0.9,0.3-1.2,0c-0.3-0.3-0.3-0.9,0-1.2l5.5-5.5c0.3-0.3,0.9-0.3,1.2,0
			C143.2,56.9,143.2,57.4,142.8,57.7z"/>
	</g>
</g>
</svg>
