<?xml version="1.0" encoding="utf-8"?>
<!-- Generator: Adobe Illustrator 18.1.1, SVG Export Plug-In . SVG Version: 6.00 Build 0)  -->
<svg version="1.1" id="图层_1" xmlns="http://www.w3.org/2000/svg" xmlns:xlink="http://www.w3.org/1999/xlink" x="0px" y="0px"
	 viewBox="0 0 240 40" enable-background="new 0 0 240 40" xml:space="preserve">
<g>
	<circle fill="#29303B" cx="180" cy="20" r="17.5"/>
	<g>
		<path fill="#FFFFFF" d="M185.8,7.3c0.4,0,0.5,0.2,0.5,0.5c0,0.4-0.2,0.5-0.5,0.5h-4.9v3.5h4.1c0.4,0,0.5,0.2,0.5,0.5
			c0,0.4-0.2,0.5-0.5,0.5h-4.1v4.5h5.1c0.4,0,0.5,0.2,0.5,0.5c0,0.4-0.2,0.5-0.5,0.5h-11.8c-0.4,0-0.5-0.2-0.5-0.5
			c0-0.4,0.2-0.5,0.5-0.5h1.1v-6.1c0-0.4,0.2-0.6,0.6-0.6s0.6,0.2,0.6,0.6v6.1h3.2v-9h-5.3c-0.4,0-0.5-0.2-0.5-0.5
			c0-0.4,0.2-0.5,0.5-0.5H185.8z"/>
		<path fill="#FFFFFF" d="M174.9,26.3h3.5c0.6,0,1,0.3,1,0.9v4.5c0,0.7-0.3,1-1,1h-3.5c-0.6,0-1-0.3-1-1v-4.5
			C173.9,26.6,174.2,26.3,174.9,26.3z M177.9,31.6c0.3,0,0.4-0.2,0.4-0.5v-3.4c0-0.3-0.1-0.4-0.4-0.4h-2.5c-0.3,0-0.4,0.1-0.4,0.4
			v3.4c0,0.3,0.1,0.5,0.4,0.5H177.9z M176.5,20.7h7.1c0.7,0,1.1,0.3,1.1,1v2.7c0,0.7-0.4,1.1-1.1,1.1h-7.1c-0.7,0-1.1-0.4-1.1-1.1
			v-2.7C175.4,21,175.7,20.7,176.5,20.7z M183,24.4c0.4,0,0.5-0.2,0.5-0.6v-1.6c0-0.4-0.2-0.5-0.5-0.5h-6c-0.4,0-0.5,0.2-0.5,0.5
			v1.6c0,0.4,0.2,0.6,0.5,0.6H183z M181.6,26.3h3.5c0.6,0,1,0.3,1,0.9v4.5c0,0.7-0.3,1-1,1h-3.5c-0.6,0-1-0.3-1-1v-4.5
			C180.6,26.6,181,26.3,181.6,26.3z M184.6,31.6c0.3,0,0.4-0.2,0.4-0.5v-3.4c0-0.3-0.1-0.4-0.4-0.4h-2.5c-0.3,0-0.4,0.1-0.4,0.4v3.4
			c0,0.3,0.1,0.5,0.4,0.5H184.6z"/>
	</g>
</g>
<g>
</g>
<g>
	<g>
		<path fill="#222B3F" d="M66.6,31.3c-2.7,0-5.4-1-7.4-2.9c-0.2-0.2-0.2-0.5,0-0.7c0.2-0.2,0.5-0.2,0.7,0c1.8,1.7,4.2,2.6,6.7,2.6
			c5.5,0,9.9-4.4,9.9-9.9c0-0.3,0.2-0.5,0.5-0.5c0.3,0,0.5,0.2,0.5,0.5C77.5,26.4,72.6,31.3,66.6,31.3z"/>
		<path fill="#D74348" d="M66.3,6.1c-1.1,0-3.2,0-5.3,0c-1.1,0-2.2,0.5-3.1,1.3L43.9,21.6c-1.8,1.8-1.8,4.7,0,6.5l4.4,4.4
			c1.8,1.8,4.7,1.8,6.5,0L69,18.4c0.8-0.8,1.3-1.9,1.3-3.1c0-2,0-4.1,0-5.3c0-1.1-0.5-2-1.2-2.7C68.4,6.6,67.4,6.1,66.3,6.1z
			 M67.6,10c0,0.7-0.6,1.3-1.3,1.3c-0.7,0-1.3-0.6-1.3-1.3s0.6-1.3,1.3-1.3C67.1,8.7,67.6,9.3,67.6,10z"/>
		<path fill="#222B3F" d="M77,20.9c-0.3,0-0.5-0.2-0.5-0.5c0-5.3-4.1-9.6-9.4-9.9c-0.3,0-0.5-0.3-0.5-0.5c0-0.3,0.3-0.5,0.5-0.5
			c2.8,0.1,5.5,1.3,7.4,3.3c2,2,3.1,4.7,3.1,7.6C77.5,20.7,77.3,20.9,77,20.9z"/>
		<g>
			<path fill="#FDF7E9" d="M48,25.2c-0.8,0.8-0.8,2.1,0,2.9s2.1,0.8,2.9,0c0.8-0.8,0.8-2.1,0-2.9C50.1,24.3,48.8,24.3,48,25.2z
				 M50.2,27.4c-0.4,0.4-1.1,0.4-1.5,0s-0.4-1.1,0-1.5c0.4-0.4,1.1-0.4,1.5,0C50.6,26.3,50.6,26.9,50.2,27.4z"/>
			<path fill="#FDF7E9" d="M52.6,21.3c-0.2-0.2-0.5-0.2-0.7,0c-0.2,0.2-0.2,0.5,0,0.7l1.3,1.3c0.3,0.3,0.3,0.7,0,1
				c-0.3,0.3-0.7,0.3-1,0L50.9,23c-0.2-0.2-0.5-0.2-0.7,0c-0.2,0.2-0.2,0.5,0,0.7l1.3,1.3c0.7,0.7,1.8,0.7,2.5,0
				c0.7-0.7,0.7-1.8,0-2.5L52.6,21.3z"/>
			<path fill="#FDF7E9" d="M54.8,19.8l0.5-0.5c0.2-0.2,0.2-0.5,0-0.7s-0.5-0.2-0.7,0l-1.7,1.7c-0.2,0.2-0.2,0.5,0,0.7
				c0.2,0.2,0.5,0.2,0.7,0l0.5-0.5l1.9,1.9c0.2,0.2,0.5,0.2,0.7,0c0.2-0.2,0.2-0.5,0-0.7L54.8,19.8z"/>
			<path fill="#FDF7E9" d="M58.8,18.7L58,19.5l-1.9-1.9c-0.2-0.2-0.5-0.2-0.7,0c-0.2,0.2-0.2,0.5,0,0.7l2.2,2.2
				c0.2,0.2,0.5,0.2,0.7,0l1.1-1.1c0.2-0.2,0.2-0.5,0-0.7C59.3,18.5,59,18.5,58.8,18.7z"/>
			<path fill="#FDF7E9" d="M60.9,16.7l-0.8,0.8L59.8,17l0.5-0.5c0.2-0.2,0.2-0.5,0-0.7c-0.2-0.2-0.5-0.2-0.7,0L59,16.3l-0.4-0.4
				l0.8-0.8c0.2-0.2,0.2-0.5,0-0.7s-0.5-0.2-0.7,0l-1.1,1.1c-0.2,0.2-0.2,0.5,0,0.7l2.2,2.2c0.2,0.2,0.5,0.2,0.7,0l1.1-1.1
				c0.2-0.2,0.2-0.5,0-0.7C61.5,16.4,61.1,16.4,60.9,16.7z"/>
			<path fill="#FDF7E9" d="M63.4,14.9L61.6,13l0.5-0.5c0.2-0.2,0.2-0.5,0-0.7c-0.2-0.2-0.5-0.2-0.7,0l-1.7,1.7
				c-0.2,0.2-0.2,0.5,0,0.7c0.2,0.2,0.5,0.2,0.7,0l0.5-0.5l1.9,1.9c0.2,0.2,0.5,0.2,0.7,0C63.7,15.4,63.7,15.1,63.4,14.9z"/>
		</g>
	</g>
</g>
<g>
	<g>
		<path fill="#81CDE3" d="M30.9,20.1c0,2.9-0.9,5.6-2.4,7.9l-11.8-1.9l-1.1-0.2l-2.5-13.7l3.6-3.9L18.9,6C25.7,7,30.9,13,30.9,20.1z
			"/>
		<path fill="#81CDE3" d="M11.2,17.9L9,12.7l-5.9,3.4c-0.4,1.3-0.6,2.6-0.6,4c0,5.2,2.8,9.7,6.9,12.1l3.9-1.7l1.2-6.7L11.2,17.9z"/>
		<path fill="#52C1DD" d="M30.9,20.1c0,2.9-0.9,5.6-2.4,7.9l-11.8-1.9V8.3L18.9,6C25.7,7,30.9,13,30.9,20.1z"/>
		<path fill="#ECEBF0" d="M28.4,28c-0.4,0.6-0.9,1.2-1.4,1.7c-2.6,2.8-6.3,4.5-10.4,4.5c-1.8,0-3.6-0.3-5.2-1
			c-0.7-0.3-1.4-0.6-2.1-1l3.6-3.6c0.2-0.2,0.3-0.5,0.3-0.8v-4.7c0-0.3-0.1-0.6-0.3-0.8l-3.7-3.7C9.1,18.5,9,18.2,9,17.9v-3
			l-5.9,1.2c0.2-0.8,0.6-1.6,1-2.4c2.3-4.4,6.8-7.6,12.1-7.8c0.2,0,0.4,0,0.6,0c0.7,0,1.5,0.1,2.2,0.2l3.1,4.7
			c0.2,0.3,0.2,0.7,0.1,1c-0.1,0.3-0.3,0.5-0.6,0.7l-4,2L16.7,16l-1.1,2.2v3.4l1.1,0.5L28.4,28z"/>
		<path fill="#D3D3D7" d="M17.6,14.4L16.7,16V5.8c0.7,0,1.5,0.1,2.2,0.2l3.1,4.7c0.2,0.3,0.2,0.7,0.1,1c-0.1,0.3-0.3,0.5-0.6,0.7
			L17.6,14.4z"/>
		<path fill="#D3D3D7" d="M28.4,28c-0.4,0.6-0.9,1.2-1.4,1.7c-2.6,2.8-6.3,4.5-10.4,4.5V22.1L28.4,28z"/>
	</g>
	<g>
		<g>
			<path fill="#D3D3D7" d="M34.6,31.2c-0.2,0.2-0.4,0.3-0.6,0.3c-0.2,0-0.5-0.1-0.6-0.3l-2.5-2.5c-0.4-0.3-0.4-0.9,0-1.2
				c0.3-0.4,0.9-0.4,1.2,0l2.5,2.5C34.9,30.3,34.9,30.9,34.6,31.2z"/>
		</g>
		<path fill="#BAB9BF" d="M34.6,31.2c-0.2,0.2-0.4,0.3-0.6,0.3c-0.2,0-0.5-0.1-0.6-0.3l-2.5-2.5c-0.4-0.3-0.4-0.9,0-1.2L34.6,31.2z"
			/>
		<path fill="#7C8387" d="M37,33.7c-0.7,0.7-1.8,0.7-2.5,0l-1.9-1.9c-0.3-0.4-0.3-0.9,0-1.3l0.6-0.6l0.6-0.6c0.3-0.3,0.9-0.3,1.3,0
			l1.9,1.9C37.7,31.8,37.7,33,37,33.7z"/>
		<path fill="#575F64" d="M37,33.7c-0.7,0.7-1.8,0.7-2.5,0l-1.9-1.9c-0.3-0.4-0.3-0.9,0-1.3l0.6-0.6L37,33.7z"/>
		<path fill="#7C8387" d="M32,19.9c-2.4-2.4-6.3-2.4-8.8,0c-2.4,2.4-2.4,6.3,0,8.8c2.4,2.4,6.3,2.4,8.8,0
			C34.4,26.2,34.4,22.3,32,19.9z"/>
		<path fill="#575F64" d="M23.2,19.9l8.8,8.8c-2.4,2.4-6.3,2.4-8.8,0C20.8,26.2,20.8,22.3,23.2,19.9z"/>
		<path fill="#ECEBF0" d="M30.7,27.4c-1.7,1.7-4.5,1.7-6.3,0c-1.7-1.7-1.7-4.5,0-6.3c1.7-1.7,4.5-1.7,6.3,0
			C32.4,22.9,32.4,25.7,30.7,27.4z"/>
		<path fill="#D3D3D7" d="M30.7,27.4c-1.7,1.7-4.5,1.7-6.3,0c-1.7-1.7-1.7-4.5,0-6.3L30.7,27.4z"/>
	</g>
</g>
<g>
	<g>
		<path fill="#2C2F33" d="M146.8,17.4v2.7c0,0.5,0.2,1,0.5,1.3v0.9c0,0.4,0.3,0.7,0.7,0.7c0.4,0,0.7-0.3,0.7-0.7v-1.2
			c0-0.2-0.1-0.5-0.3-0.6c-0.1-0.1-0.2-0.3-0.2-0.4v-2.7c0-0.9,0.8-1.7,1.7-1.7h0.6c0.9,0,1.7,0.8,1.7,1.7v2.7
			c0,0.2-0.1,0.3-0.2,0.4c-0.2,0.1-0.3,0.4-0.3,0.6v2.6c0,0.3,0.2,0.6,0.5,0.7c0.3,0.2,2.1,1,3.7,2.4c0.1,0.1,0.2,0.3,0.2,0.5v1.1
			h-5c-0.4,0-0.7,0.3-0.7,0.7c0,0.4,0.3,0.7,0.7,0.7h5.7c0.4,0,0.7-0.3,0.7-0.7v-1.8c0-0.6-0.3-1.2-0.7-1.6c-1.4-1.2-2.9-2-3.6-2.4
			v-1.9c0.3-0.4,0.5-0.8,0.5-1.3v-2.7c0-1.7-1.4-3.1-3.1-3.1H150C148.2,14.3,146.8,15.7,146.8,17.4z"/>
		<path fill="#2C2F33" d="M123.2,29.9h5.8c0.4,0,0.7-0.3,0.7-0.7c0-0.4-0.3-0.7-0.7-0.7h-5v-1.1c0-0.2,0.1-0.4,0.2-0.5
			c1.6-1.3,3.4-2.2,3.7-2.4c0.3-0.1,0.5-0.4,0.5-0.7v-2.6c0-0.2-0.1-0.5-0.3-0.6c-0.1-0.1-0.2-0.3-0.2-0.4v-2.7
			c0-0.9,0.8-1.7,1.7-1.7h0.6c0.9,0,1.7,0.8,1.7,1.7v2.7c0,0.2-0.1,0.3-0.2,0.4c-0.2,0.1-0.3,0.4-0.3,0.6v1.3c0,0.4,0.3,0.7,0.7,0.7
			c0.4,0,0.7-0.3,0.7-0.7v-1c0.3-0.4,0.5-0.8,0.5-1.3v-2.7c0-1.7-1.4-3.1-3.1-3.1h-0.6c-1.7,0-3.1,1.4-3.1,3.1v2.7
			c0,0.5,0.2,1,0.5,1.3v1.9c-0.7,0.4-2.2,1.2-3.6,2.4c-0.5,0.4-0.7,1-0.7,1.6v1.8C122.5,29.5,122.8,29.9,123.2,29.9z"/>
		<path fill="#13AE67" d="M144.2,17.5V14c0-2.1-1.7-3.8-3.8-3.8h-0.8c-2.1,0-3.8,1.7-3.8,3.8v3.5c0,0.6,0.3,1.2,0.7,1.6v2.7
			c-0.8,0.4-2.9,1.5-4.8,3.1c-0.6,0.5-0.9,1.1-0.9,1.9v2.4c0,0.4,0.3,0.7,0.7,0.7h16.9c0.4,0,0.7-0.3,0.7-0.7v-2.4
			c0-0.7-0.3-1.4-0.9-1.9c-1.9-1.6-4-2.7-4.8-3.1v-2.7C144,18.7,144.2,18.1,144.2,17.5z M147.4,26c0.2,0.2,0.4,0.5,0.4,0.8v1.7
			h-15.5v-1.7c0-0.3,0.1-0.6,0.4-0.8c2.1-1.7,4.4-2.9,4.8-3.1c0.3-0.1,0.5-0.5,0.5-0.8v-3.4c0-0.2-0.1-0.5-0.3-0.6
			c-0.2-0.2-0.4-0.4-0.4-0.7V14c0-1.3,1.1-2.4,2.4-2.4h0.8c1.3,0,2.4,1.1,2.4,2.4v3.5c0,0.3-0.1,0.6-0.4,0.7
			c-0.2,0.1-0.3,0.4-0.3,0.6v3.4c0,0.3,0.2,0.6,0.5,0.8C143.1,23.1,145.3,24.3,147.4,26z"/>
	</g>
</g>
<g id="surface1_3_">
	<path fill="#AD5E48" d="M229.7,22l7.4,9.8c0.7,0.9,0.5,2.2-0.4,2.9c-0.9,0.7-2.2,0.5-2.9-0.4l-7.4-9.8l0.4-2.9L229.7,22z"/>
	<path fill="#7E4131" d="M226.4,24.4l0.4-2.9l9.9,13.1c-0.9,0.7-2.2,0.5-2.9-0.4L226.4,24.4z"/>
	<path fill="#BF6F59" d="M222.7,19.5l3.3-2.5l3.7,4.9l-3.3,2.5L222.7,19.5z"/>
	<path fill="#954F3C" d="M222.7,19.5l1.6-1.2l3.7,4.9l-1.6,1.2L222.7,19.5z"/>
	<path fill="#C9A063" d="M226.8,6.3l3.6,4.7c0.1,3-1.9,6.7-4.8,8.9s-7,3.1-9.9,2.2l-3.6-4.7c-0.1-3,1.9-6.7,4.8-8.9
		C219.9,6.2,224,5.3,226.8,6.3z"/>
	<path fill="#B28247" d="M216.9,8.5l8.6,11.5c-3,2.2-7,3.1-9.9,2.2l-3.6-4.7C212,14.3,214,10.7,216.9,8.5z"/>
	<path fill="#954F3C" d="M232.9,14.4c-0.9,0.7-2.2,0.5-2.9-0.4l-6.2-8.2c-0.7-0.9-0.5-2.2,0.4-2.9c0.9-0.7,2.2-0.5,2.9,0.4l6.2,8.2
		C234,12.4,233.9,13.7,232.9,14.4z"/>
	<path fill="#7E4131" d="M218.6,24.6c-0.9,0.7-2.2,0.5-2.9-0.4l-6.2-8.2c-0.7-0.9-0.5-2.2,0.4-2.9c0.9-0.7,2.2-0.5,2.9,0.4l6.2,8.2
		C219.7,22.7,219.5,24,218.6,24.6z"/>
	<path fill="#954F3C" d="M221,32.2v2.2c0,0.6-0.5,1-1,1h-14.4c-0.6,0-1-0.5-1-1v-2.2c0-1.6,1.3-3,3-3H218
		C219.6,29.3,221,30.6,221,32.2z"/>
	<path fill="#7E4131" d="M221,32.2v2.2c0,0.6-0.5,1-1,1h-7.2v-6.2h5.3C219.6,29.3,221,30.6,221,32.2z"/>
	<path fill="#AD5E48" d="M221,33.4h-16.4c-1.1,0-2.1,0.9-2.1,2.1v1c0,0.6,0.5,1,1,1H222c0.6,0,1-0.5,1-1v-1
		C223,34.3,222.1,33.4,221,33.4z"/>
	<path fill="#954F3C" d="M223,35.4v1c0,0.6-0.5,1-1,1h-9.2v-4.1h8.2C222.1,33.4,223,34.3,223,35.4z"/>
</g>
<g id="store-shop">
	<path fill="#232B40" d="M115,17.5v15.4c0,2-1.6,3.7-3.7,3.7H89.3c-2,0-3.7-1.6-3.7-3.7V17.5H115z"/>
	<path fill="#232B40" d="M115,17.5v15.4c0,2-1.6,3.7-3.7,3.7h-11.1v-19H115z"/>
	<path fill="#D82436" d="M109.2,8.3l-1.7-3.7c-0.3-0.7-0.8-1.2-1.4-1.2H94.3c-0.6,0.1-1.1,0.5-1.3,1L91,8.1
		c-0.8,1.6-1.2,3.3-1.1,5.1v4.3c0,0.7,0.3,1.2,0.7,1.2h18.8c0.4,0,0.7-0.6,0.7-1.2V13C110.1,11.4,109.8,9.8,109.2,8.3z"/>
	<path fill="#DCDEE5" d="M100.3,26.1L100.3,26.1c2.4,0,4.3,1.9,4.3,4.3v6.1l0,0H96l0,0v-6.1C96,28.1,97.9,26.1,100.3,26.1z"/>
	<path fill="#E34149" d="M117.5,13v4.5c0,0.7-0.5,1.2-1.2,1.2h-9.2v-4.7c0-1.8-0.5-3.5-1.3-5l-3.2-5.7h8c0.9,0,1.8,0.4,2.4,1.2
		l3,3.7C116.9,9.6,117.5,11.3,117.5,13z"/>
	<path fill="#E34149" d="M82.5,13v4.5c0,0.7,0.5,1.2,1.2,1.2h9.2v-4.7c0-1.8,0.5-3.5,1.3-5l3.2-5.7h-8c-0.9,0-1.8,0.4-2.4,1.2
		l-3,3.7C83.1,9.6,82.5,11.3,82.5,13z"/>
	<path fill="#DCDEE5" d="M104.6,30.4v6.1h-4.3V26.1C102.7,26.1,104.6,28.1,104.6,30.4z"/>
</g>
</svg>
